<svg xmlns="http://www.w3.org/2000/svg" width="24" height="24" viewBox="0 0 24 24">
    <g fill="none" fill-rule="evenodd">
        <path fill="#D5D5D5" d="M12 0C8.741 0 8.332.014 7.052.072 5.775.13 4.902.333 4.14.63a5.882 5.882 0 0 0-2.126 1.384A5.882 5.882 0 0 0 .63 4.14c-.297.763-.5 1.635-.558 2.912C.014 8.332 0 8.741 0 12c0 3.259.014 3.668.072 4.948.058 1.277.261 2.15.558 2.912.307.79.717 1.459 1.384 2.126A5.883 5.883 0 0 0 4.14 23.37c.763.297 1.635.5 2.912.558C8.332 23.986 8.741 24 12 24c3.259 0 3.668-.014 4.948-.072 1.277-.058 2.15-.261 2.912-.558a5.883 5.883 0 0 0 2.126-1.384 5.883 5.883 0 0 0 1.384-2.126c.297-.763.5-1.635.558-2.912.058-1.28.072-1.689.072-4.948 0-3.259-.014-3.668-.072-4.948-.058-1.277-.261-2.15-.558-2.912a5.883 5.883 0 0 0-1.384-2.126A5.882 5.882 0 0 0 19.86.63c-.763-.297-1.635-.5-2.912-.558C15.668.014 15.259 0 12 0z"/>
        <g fill="#FFF">
            <path d="M12.104 15.979a3.868 3.868 0 1 1 0-7.736 3.868 3.868 0 0 1 0 7.736zm0-9.827a5.959 5.959 0 1 0 0 11.917 5.959 5.959 0 0 0 0-11.917zM19.69 5.917a1.392 1.392 0 1 1-2.785 0 1.392 1.392 0 0 1 2.785 0"/>
        </g>
    </g>
</svg>
