<svg xmlns="http://www.w3.org/2000/svg" xmlns:xlink="http://www.w3.org/1999/xlink" width="38" height="38" viewBox="0 0 28.441 28.441">
    <defs>
        <rect id="a" width="30" height="30"/>
        <path id="c" d="M0 28.441h28.435V.01H0z"/>
    </defs>
    <g fill="none" fill-rule="evenodd">
        <mask id="b" fill="#fff">
            <use xlink:href="#a"/>
        </mask>
        <g mask="url(#b)">
            <g>
                <mask id="d" fill="#fff">
                    <use xlink:href="#c"/>
                </mask>
                <path fill="#3964E7" d="M14.218.009c-3.862 0-4.346.016-5.862.086-1.514.069-2.547.309-3.451.66a6.969 6.969 0 0 0-2.519 1.64 6.969 6.969 0 0 0-1.64 2.519c-.351.904-.591 1.937-.66 3.45C.016 9.882 0 10.366 0 14.228c0 3.861.016 4.345.086 5.862.069 1.513.309 2.547.66 3.45.364.936.85 1.729 1.64 2.52a6.97 6.97 0 0 0 2.519 1.64c.904.35 1.937.59 3.45.66 1.517.07 2.001.085 5.863.085 3.861 0 4.345-.016 5.862-.085 1.513-.07 2.547-.31 3.45-.66a6.97 6.97 0 0 0 2.52-1.64 6.97 6.97 0 0 0 1.64-2.52c.35-.903.59-1.937.66-3.45.07-1.517.085-2.001.085-5.862 0-3.862-.016-4.346-.085-5.862-.07-1.514-.31-2.547-.66-3.451a6.97 6.97 0 0 0-1.64-2.519 6.969 6.969 0 0 0-2.52-1.64c-.903-.351-1.937-.591-3.45-.66-1.517-.07-2.001-.086-5.862-.086zm0 2.562c3.796 0 4.246.014 5.745.083 1.386.063 2.139.294 2.64.49a4.404 4.404 0 0 1 1.635 1.063c.497.497.805.97 1.063 1.634.195.501.427 1.254.49 2.64.068 1.5.083 1.95.083 5.746 0 3.796-.015 4.246-.083 5.745-.063 1.386-.295 2.139-.49 2.64a4.404 4.404 0 0 1-1.063 1.635 4.404 4.404 0 0 1-1.635 1.063c-.501.195-1.254.427-2.64.49-1.5.068-1.949.083-5.745.083-3.797 0-4.246-.015-5.745-.083-1.387-.063-2.14-.295-2.64-.49a4.404 4.404 0 0 1-1.635-1.063 4.405 4.405 0 0 1-1.064-1.635c-.195-.501-.426-1.254-.49-2.64-.068-1.5-.082-1.949-.082-5.745 0-3.797.014-4.246.083-5.745.063-1.387.294-2.14.49-2.64a4.404 4.404 0 0 1 1.063-1.635 4.404 4.404 0 0 1 1.635-1.064c.5-.195 1.253-.426 2.64-.49 1.499-.068 1.948-.082 5.745-.082z" mask="url(#d)"/>
            </g>
            <path fill="#3964E7" d="M14.218 18.966a4.74 4.74 0 1 1 0-9.479 4.74 4.74 0 0 1 0 9.479zm0-12.04a7.301 7.301 0 1 0 0 14.602 7.301 7.301 0 0 0 0-14.602zM23.513 6.637a1.706 1.706 0 1 1-3.412 0 1.706 1.706 0 0 1 3.412 0"/>
        </g>
    </g>
</svg>
