<svg xmlns="http://www.w3.org/2000/svg" xmlns:xlink="http://www.w3.org/1999/xlink" width="16" height="14" viewBox="0 0 16 14">
    <defs>
        <path id="a" d="M387 16.84c-.87-1.186-2.175-1.84-3.51-1.84-.761 0-1.533.213-2.24.66-1.432.906-2.237 2.544-2.25 4.233v.08c.007.823.201 1.656.604 2.42 1.012 1.92 5.29 5.26 6.835 6.427.133.1.286.16.442.18h.237a.924.924 0 0 0 .442-.18c1.545-1.167 5.823-4.506 6.836-6.427 1.243-2.358.505-5.371-1.647-6.733a4.182 4.182 0 0 0-2.24-.66c-1.336 0-2.64.654-3.51 1.84z"/>
    </defs>
    <use fill="#ED4956" fill-rule="evenodd" transform="translate(-379 -15)" xlink:href="#a"/>
</svg>
