O:8:"stdClass":30:{s:9:"biography";s:23:"$oC|-\O G€€T KI ⚾";s:17:"blocked_by_viewer";b:0;s:13:"country_block";b:0;s:12:"external_url";N;s:24:"external_url_linkshimmed";N;s:16:"edge_followed_by";O:8:"stdClass":1:{s:5:"count";i:1482;}s:18:"followed_by_viewer";b:0;s:11:"edge_follow";O:8:"stdClass":1:{s:5:"count";i:7311;}s:14:"follows_viewer";b:0;s:9:"full_name";s:12:"cricket info";s:11:"has_channel";b:0;s:18:"has_blocked_viewer";b:0;s:20:"highlight_reel_count";i:0;s:20:"has_requested_viewer";b:0;s:2:"id";s:10:"2563000666";s:19:"is_business_account";b:0;s:18:"is_joined_recently";b:0;s:22:"business_category_name";N;s:10:"is_private";b:0;s:11:"is_verified";b:0;s:23:"edge_mutual_followed_by";O:8:"stdClass":2:{s:5:"count";i:0;s:5:"edges";a:0:{}}s:15:"profile_pic_url";s:197:"https://scontent-iad3-1.cdninstagram.com/vp/db2a19715951d12c682e478aeec4994f/5DF01B3A/t51.2885-19/s150x150/17333105_777948702358685_4291623359017385984_a.jpg?_nc_ht=scontent-iad3-1.cdninstagram.com";s:18:"profile_pic_url_hd";s:197:"https://scontent-iad3-1.cdninstagram.com/vp/db2a19715951d12c682e478aeec4994f/5DF01B3A/t51.2885-19/s150x150/17333105_777948702358685_4291623359017385984_a.jpg?_nc_ht=scontent-iad3-1.cdninstagram.com";s:19:"requested_by_viewer";b:0;s:8:"username";s:12:"info.cricket";s:17:"connected_fb_page";N;s:25:"edge_felix_video_timeline";O:8:"stdClass":3:{s:5:"count";i:0;s:9:"page_info";O:8:"stdClass":2:{s:13:"has_next_page";b:0;s:10:"end_cursor";N;}s:5:"edges";a:0:{}}s:28:"edge_owner_to_timeline_media";O:8:"stdClass":3:{s:5:"count";i:136;s:9:"page_info";O:8:"stdClass":2:{s:13:"has_next_page";b:1;s:10:"end_cursor";s:120:"QVFBSGoybnRsczE2Tm9vV3hDa1hhTElvQkdCcERZdURtTGd4S0RuNC1NYWVzMTRYcEhIRlNXQmZGcGxKUVhQb3NxR2tyMG1ydTdRcGFiUkJiSnZSdkpUUg==";}s:5:"edges";a:12:{i:0;O:8:"stdClass":1:{s:4:"node";O:8:"stdClass":19:{s:10:"__typename";s:10:"GraphImage";s:2:"id";s:19:"2064707583475057166";s:21:"edge_media_to_caption";O:8:"stdClass":1:{s:5:"edges";a:1:{i:0;O:8:"stdClass":1:{s:4:"node";O:8:"stdClass":1:{s:4:"text";s:476:"Power Innings @aaronfinch5
.
Follow > @info.cricket  @info.cricket  @info.cricket  @info.cricket  @info.cricket  @info.cricket  @info.cricket
.
#india #england #australia #pakistan #indian #icc #bcci  #cricket #cricketmerijaan #cricketfans #cricketlove #lovecricket #cricketworld #worldcricket  #cricketer #indiancricket #indiancricketteam #teamindia #worldcup #cricketworldcup  #worldcup2019 #cwc19 #indvpak #aaronfinch #pakvaus #dhoni #msd  #viratkohli #ausvpak #davidwarner";}}}}s:9:"shortcode";s:11:"BynUJueFgIO";s:21:"edge_media_to_comment";O:8:"stdClass":1:{s:5:"count";i:0;}s:17:"comments_disabled";b:0;s:18:"taken_at_timestamp";i:1560352345;s:10:"dimensions";O:8:"stdClass":2:{s:6:"height";i:1284;s:5:"width";i:1080;}s:11:"display_url";s:192:"https://scontent-iad3-1.cdninstagram.com/vp/70a6a958d3fcb3bfb3c59410c42c6f4d/5DF073A0/t51.2885-15/e35/62414140_665518340556009_5803153996900007932_n.jpg?_nc_ht=scontent-iad3-1.cdninstagram.com";s:13:"edge_liked_by";O:8:"stdClass":1:{s:5:"count";i:62;}s:23:"edge_media_preview_like";O:8:"stdClass":1:{s:5:"count";i:62;}s:8:"location";N;s:11:"gating_info";N;s:13:"media_preview";N;s:5:"owner";O:8:"stdClass":2:{s:2:"id";s:10:"2563000666";s:8:"username";s:12:"info.cricket";}s:13:"thumbnail_src";s:225:"https://scontent-iad3-1.cdninstagram.com/vp/5b53ccff9d6692c32aa14ad24035e616/5DD25345/t51.2885-15/sh0.08/e35/c0.102.1080.1080/s640x640/62414140_665518340556009_5803153996900007932_n.jpg?_nc_ht=scontent-iad3-1.cdninstagram.com";s:19:"thumbnail_resources";a:5:{i:0;O:8:"stdClass":3:{s:3:"src";s:218:"https://scontent-iad3-1.cdninstagram.com/vp/b14d444c0855d031049147fb75376b79/5E0EF55E/t51.2885-15/e35/c0.102.1080.1080/s150x150/62414140_665518340556009_5803153996900007932_n.jpg?_nc_ht=scontent-iad3-1.cdninstagram.com";s:12:"config_width";i:150;s:13:"config_height";i:150;}i:1;O:8:"stdClass":3:{s:3:"src";s:218:"https://scontent-iad3-1.cdninstagram.com/vp/6e0cc72909b4c87ae5857a45924880cf/5DF2E814/t51.2885-15/e35/c0.102.1080.1080/s240x240/62414140_665518340556009_5803153996900007932_n.jpg?_nc_ht=scontent-iad3-1.cdninstagram.com";s:12:"config_width";i:240;s:13:"config_height";i:240;}i:2;O:8:"stdClass":3:{s:3:"src";s:218:"https://scontent-iad3-1.cdninstagram.com/vp/fa1ef4cdd2464af15bb6f26d311026a0/5DE0D5AE/t51.2885-15/e35/c0.102.1080.1080/s320x320/62414140_665518340556009_5803153996900007932_n.jpg?_nc_ht=scontent-iad3-1.cdninstagram.com";s:12:"config_width";i:320;s:13:"config_height";i:320;}i:3;O:8:"stdClass":3:{s:3:"src";s:218:"https://scontent-iad3-1.cdninstagram.com/vp/96d5af56fc6e8bea96b71ced20b399f2/5DE276F4/t51.2885-15/e35/c0.102.1080.1080/s480x480/62414140_665518340556009_5803153996900007932_n.jpg?_nc_ht=scontent-iad3-1.cdninstagram.com";s:12:"config_width";i:480;s:13:"config_height";i:480;}i:4;O:8:"stdClass":3:{s:3:"src";s:225:"https://scontent-iad3-1.cdninstagram.com/vp/5b53ccff9d6692c32aa14ad24035e616/5DD25345/t51.2885-15/sh0.08/e35/c0.102.1080.1080/s640x640/62414140_665518340556009_5803153996900007932_n.jpg?_nc_ht=scontent-iad3-1.cdninstagram.com";s:12:"config_width";i:640;s:13:"config_height";i:640;}}s:8:"is_video";b:0;s:21:"accessibility_caption";s:69:"Image may contain: one or more people, people playing sports and text";}}i:1;O:8:"stdClass":1:{s:4:"node";O:8:"stdClass":19:{s:10:"__typename";s:10:"GraphImage";s:2:"id";s:19:"2064554646534692107";s:21:"edge_media_to_caption";O:8:"stdClass":1:{s:5:"edges";a:1:{i:0;O:8:"stdClass":1:{s:4:"node";O:8:"stdClass":1:{s:4:"text";s:464:"What Say ?
.
Follow > @info.cricket  @info.cricket  @info.cricket  @info.cricket  @info.cricket  @info.cricket  @info.cricket
.
#india #england #indian #icc #bcci  #cricket #cricketmerijaan #cricketfans #cricketlove #lovecricket #cricketworld #worldcricket  #cricketer #indiancricket #indiancricketteam #teamindia #worldcup #cricketworldcup  #worldcup2019 #cwc19 #indvnz #indvpak #dineshkarthik #vijaysankar #banvsl #shikhardhawan #dhoni #msd  #viratkohli #ausvpak";}}}}s:9:"shortcode";s:11:"BymxYM2FR0L";s:21:"edge_media_to_comment";O:8:"stdClass":1:{s:5:"count";i:16;}s:17:"comments_disabled";b:0;s:18:"taken_at_timestamp";i:1560334114;s:10:"dimensions";O:8:"stdClass":2:{s:6:"height";i:821;s:5:"width";i:1080;}s:11:"display_url";s:193:"https://scontent-iad3-1.cdninstagram.com/vp/d6d5fc4478abae169f8c9e5fd86126e0/5DE46C9C/t51.2885-15/e35/61361456_2063318930628539_7964030500051383704_n.jpg?_nc_ht=scontent-iad3-1.cdninstagram.com";s:13:"edge_liked_by";O:8:"stdClass":1:{s:5:"count";i:110;}s:23:"edge_media_preview_like";O:8:"stdClass":1:{s:5:"count";i:110;}s:8:"location";N;s:11:"gating_info";N;s:13:"media_preview";N;s:5:"owner";O:8:"stdClass":2:{s:2:"id";s:10:"2563000666";s:8:"username";s:12:"info.cricket";}s:13:"thumbnail_src";s:224:"https://scontent-iad3-1.cdninstagram.com/vp/7bbd207561cccff6be24e73f8fd92eaa/5DD7D0F3/t51.2885-15/sh0.08/e35/c129.0.821.821/s640x640/61361456_2063318930628539_7964030500051383704_n.jpg?_nc_ht=scontent-iad3-1.cdninstagram.com";s:19:"thumbnail_resources";a:5:{i:0;O:8:"stdClass":3:{s:3:"src";s:217:"https://scontent-iad3-1.cdninstagram.com/vp/64fe2cd1b680d878209e26baf7d21eb2/5DD610C7/t51.2885-15/e35/c129.0.821.821/s150x150/61361456_2063318930628539_7964030500051383704_n.jpg?_nc_ht=scontent-iad3-1.cdninstagram.com";s:12:"config_width";i:150;s:13:"config_height";i:150;}i:1;O:8:"stdClass":3:{s:3:"src";s:217:"https://scontent-iad3-1.cdninstagram.com/vp/2a97d0a32207f868d0dd35efd8f91b75/5E0FA6C1/t51.2885-15/e35/c129.0.821.821/s240x240/61361456_2063318930628539_7964030500051383704_n.jpg?_nc_ht=scontent-iad3-1.cdninstagram.com";s:12:"config_width";i:240;s:13:"config_height";i:240;}i:2;O:8:"stdClass":3:{s:3:"src";s:217:"https://scontent-iad3-1.cdninstagram.com/vp/a62772bbb8ac27f49e1101d40efadab4/5DDCACBF/t51.2885-15/e35/c129.0.821.821/s320x320/61361456_2063318930628539_7964030500051383704_n.jpg?_nc_ht=scontent-iad3-1.cdninstagram.com";s:12:"config_width";i:320;s:13:"config_height";i:320;}i:3;O:8:"stdClass":3:{s:3:"src";s:217:"https://scontent-iad3-1.cdninstagram.com/vp/a325706637865d141d72892585a33c80/5DE4F5F8/t51.2885-15/e35/c129.0.821.821/s480x480/61361456_2063318930628539_7964030500051383704_n.jpg?_nc_ht=scontent-iad3-1.cdninstagram.com";s:12:"config_width";i:480;s:13:"config_height";i:480;}i:4;O:8:"stdClass":3:{s:3:"src";s:224:"https://scontent-iad3-1.cdninstagram.com/vp/7bbd207561cccff6be24e73f8fd92eaa/5DD7D0F3/t51.2885-15/sh0.08/e35/c129.0.821.821/s640x640/61361456_2063318930628539_7964030500051383704_n.jpg?_nc_ht=scontent-iad3-1.cdninstagram.com";s:12:"config_width";i:640;s:13:"config_height";i:640;}}s:8:"is_video";b:0;s:21:"accessibility_caption";s:78:"Image may contain: one or more people, people playing sports, text and outdoor";}}i:2;O:8:"stdClass":1:{s:4:"node";O:8:"stdClass":19:{s:10:"__typename";s:10:"GraphImage";s:2:"id";s:19:"2063842312149453740";s:21:"edge_media_to_caption";O:8:"stdClass":1:{s:5:"edges";a:1:{i:0;O:8:"stdClass":1:{s:4:"node";O:8:"stdClass":1:{s:4:"text";s:487:"Praying for Speedy Recovery of gabbar ❤
.
Follow > @info.cricket  @info.cricket  @info.cricket  @info.cricket  @info.cricket  @info.cricket  @info.cricket
.
#india #england #indian #icc #bcci  #cricket #cricketmerijaan #cricketfans #cricketlove #lovecricket #cricketworld #worldcricket  #cricketer #indiancricket #indiancricketteam #teamindia #worldcup #cricketworldcup  #worldcup2019 #cwc19 #indvnz #indvpak #shikhardhawan #gabbar #banvsl #slvban #dhoni #msd  #viratkohli #godblessyou";}}}}s:9:"shortcode";s:11:"BykPaXwFsus";s:21:"edge_media_to_comment";O:8:"stdClass":1:{s:5:"count";i:1;}s:17:"comments_disabled";b:0;s:18:"taken_at_timestamp";i:1560249197;s:10:"dimensions";O:8:"stdClass":2:{s:6:"height";i:1104;s:5:"width";i:1080;}s:11:"display_url";s:192:"https://scontent-iad3-1.cdninstagram.com/vp/7a281d9232239e6a4d7e251fbac62f18/5E0FDDC4/t51.2885-15/e35/60753760_333355647596464_6934243495899307252_n.jpg?_nc_ht=scontent-iad3-1.cdninstagram.com";s:13:"edge_liked_by";O:8:"stdClass":1:{s:5:"count";i:139;}s:23:"edge_media_preview_like";O:8:"stdClass":1:{s:5:"count";i:139;}s:8:"location";N;s:11:"gating_info";N;s:13:"media_preview";N;s:5:"owner";O:8:"stdClass":2:{s:2:"id";s:10:"2563000666";s:8:"username";s:12:"info.cricket";}s:13:"thumbnail_src";s:225:"https://scontent-iad3-1.cdninstagram.com/vp/e25d827b04097c5d87d69d5a502bd46c/5DD50CBD/t51.2885-15/sh0.08/e35/c0.12.1080.1080a/s640x640/60753760_333355647596464_6934243495899307252_n.jpg?_nc_ht=scontent-iad3-1.cdninstagram.com";s:19:"thumbnail_resources";a:5:{i:0;O:8:"stdClass":3:{s:3:"src";s:218:"https://scontent-iad3-1.cdninstagram.com/vp/61269f4d19dfb9f8470c6a44a2920e1e/5DE0D4A6/t51.2885-15/e35/c0.12.1080.1080a/s150x150/60753760_333355647596464_6934243495899307252_n.jpg?_nc_ht=scontent-iad3-1.cdninstagram.com";s:12:"config_width";i:150;s:13:"config_height";i:150;}i:1;O:8:"stdClass":3:{s:3:"src";s:218:"https://scontent-iad3-1.cdninstagram.com/vp/edf3836edaac4450d71cd15337acfe7e/5E1571EC/t51.2885-15/e35/c0.12.1080.1080a/s240x240/60753760_333355647596464_6934243495899307252_n.jpg?_nc_ht=scontent-iad3-1.cdninstagram.com";s:12:"config_width";i:240;s:13:"config_height";i:240;}i:2;O:8:"stdClass":3:{s:3:"src";s:218:"https://scontent-iad3-1.cdninstagram.com/vp/6b6c44a463d927789e93d068acb665ff/5DF08F56/t51.2885-15/e35/c0.12.1080.1080a/s320x320/60753760_333355647596464_6934243495899307252_n.jpg?_nc_ht=scontent-iad3-1.cdninstagram.com";s:12:"config_width";i:320;s:13:"config_height";i:320;}i:3;O:8:"stdClass":3:{s:3:"src";s:218:"https://scontent-iad3-1.cdninstagram.com/vp/9f7cd56f67686d8c91a26e3a91846695/5DE0590C/t51.2885-15/e35/c0.12.1080.1080a/s480x480/60753760_333355647596464_6934243495899307252_n.jpg?_nc_ht=scontent-iad3-1.cdninstagram.com";s:12:"config_width";i:480;s:13:"config_height";i:480;}i:4;O:8:"stdClass":3:{s:3:"src";s:225:"https://scontent-iad3-1.cdninstagram.com/vp/e25d827b04097c5d87d69d5a502bd46c/5DD50CBD/t51.2885-15/sh0.08/e35/c0.12.1080.1080a/s640x640/60753760_333355647596464_6934243495899307252_n.jpg?_nc_ht=scontent-iad3-1.cdninstagram.com";s:12:"config_width";i:640;s:13:"config_height";i:640;}}s:8:"is_video";b:0;s:21:"accessibility_caption";s:52:"Image may contain: one or more people, meme and text";}}i:3;O:8:"stdClass":1:{s:4:"node";O:8:"stdClass":19:{s:10:"__typename";s:10:"GraphImage";s:2:"id";s:19:"2063108511492330861";s:21:"edge_media_to_caption";O:8:"stdClass":1:{s:5:"edges";a:1:{i:0;O:8:"stdClass":1:{s:4:"node";O:8:"stdClass":1:{s:4:"text";s:644:"Cricket will Miss you @yuvisofficial
Thank You YUVI-PA 🙏
We can't forget your DEDICATION 😢🙏💔💔
Yuvraj Singh announced his retirement from International and first class cricket 🏏
.
#india  #indian #icc #bcci  #cricket #cricketmerijaan #cricketfans #cricketlove #lovecricket #cricketworld #worldcricket  #cricketer #indiancricket #indiancricketteam #teamindia #worldcup #cricketworldcup #thankyouyuvi #worldcup2019 #cwc19 #yuvrajsingh #yuvi #yuvipa #yuvipaaji #goodblessyou #ipl
#dhoni #msd  #viratkohli #iloveyou
.
Follow > @info.cricket  @info.cricket  @info.cricket  @info.cricket  @info.cricket  @info.cricket  @info.cricket";}}}}s:9:"shortcode";s:11:"ByhokKoldVt";s:21:"edge_media_to_comment";O:8:"stdClass":1:{s:5:"count";i:0;}s:17:"comments_disabled";b:0;s:18:"taken_at_timestamp";i:1560161721;s:10:"dimensions";O:8:"stdClass":2:{s:6:"height";i:1106;s:5:"width";i:1080;}s:11:"display_url";s:193:"https://scontent-iad3-1.cdninstagram.com/vp/9594a42a2e01a696d9dbe87b33680527/5DD670CC/t51.2885-15/e35/61608592_2347435695514470_8875914310983511692_n.jpg?_nc_ht=scontent-iad3-1.cdninstagram.com";s:13:"edge_liked_by";O:8:"stdClass":1:{s:5:"count";i:144;}s:23:"edge_media_preview_like";O:8:"stdClass":1:{s:5:"count";i:144;}s:8:"location";N;s:11:"gating_info";N;s:13:"media_preview";N;s:5:"owner";O:8:"stdClass":2:{s:2:"id";s:10:"2563000666";s:8:"username";s:12:"info.cricket";}s:13:"thumbnail_src";s:226:"https://scontent-iad3-1.cdninstagram.com/vp/7e841abf4be9aa943b1803f33cfecd48/5DD30D2B/t51.2885-15/sh0.08/e35/c0.13.1080.1080a/s640x640/61608592_2347435695514470_8875914310983511692_n.jpg?_nc_ht=scontent-iad3-1.cdninstagram.com";s:19:"thumbnail_resources";a:5:{i:0;O:8:"stdClass":3:{s:3:"src";s:219:"https://scontent-iad3-1.cdninstagram.com/vp/f98d5dd991f9d049e1b6d7d9cfabdce9/5DDA99BC/t51.2885-15/e35/c0.13.1080.1080a/s150x150/61608592_2347435695514470_8875914310983511692_n.jpg?_nc_ht=scontent-iad3-1.cdninstagram.com";s:12:"config_width";i:150;s:13:"config_height";i:150;}i:1;O:8:"stdClass":3:{s:3:"src";s:219:"https://scontent-iad3-1.cdninstagram.com/vp/e42ac70d84c5248be50195dc5147277a/5DD108BA/t51.2885-15/e35/c0.13.1080.1080a/s240x240/61608592_2347435695514470_8875914310983511692_n.jpg?_nc_ht=scontent-iad3-1.cdninstagram.com";s:12:"config_width";i:240;s:13:"config_height";i:240;}i:2;O:8:"stdClass":3:{s:3:"src";s:219:"https://scontent-iad3-1.cdninstagram.com/vp/cb4503a1d496fb3c3b637f740f79104b/5DE3B0C4/t51.2885-15/e35/c0.13.1080.1080a/s320x320/61608592_2347435695514470_8875914310983511692_n.jpg?_nc_ht=scontent-iad3-1.cdninstagram.com";s:12:"config_width";i:320;s:13:"config_height";i:320;}i:3;O:8:"stdClass":3:{s:3:"src";s:219:"https://scontent-iad3-1.cdninstagram.com/vp/7290a0f986d05195f3a574e6565bb231/5DD9D183/t51.2885-15/e35/c0.13.1080.1080a/s480x480/61608592_2347435695514470_8875914310983511692_n.jpg?_nc_ht=scontent-iad3-1.cdninstagram.com";s:12:"config_width";i:480;s:13:"config_height";i:480;}i:4;O:8:"stdClass":3:{s:3:"src";s:226:"https://scontent-iad3-1.cdninstagram.com/vp/7e841abf4be9aa943b1803f33cfecd48/5DD30D2B/t51.2885-15/sh0.08/e35/c0.13.1080.1080a/s640x640/61608592_2347435695514470_8875914310983511692_n.jpg?_nc_ht=scontent-iad3-1.cdninstagram.com";s:12:"config_width";i:640;s:13:"config_height";i:640;}}s:8:"is_video";b:0;s:21:"accessibility_caption";s:52:"Image may contain: one or more people, meme and text";}}i:4;O:8:"stdClass":1:{s:4:"node";O:8:"stdClass":19:{s:10:"__typename";s:10:"GraphImage";s:2:"id";s:19:"2056463528605710571";s:21:"edge_media_to_caption";O:8:"stdClass":1:{s:5:"edges";a:1:{i:0;O:8:"stdClass":1:{s:4:"node";O:8:"stdClass":1:{s:4:"text";s:460:"🏆 WORLD CUP CHAMPIONS 🏆
.
#india #england #westindies #windies #srilanka #pakistan #indian #icc #bcci #australia #cricket #cricketmerijaan #cricketfans #cricketlove #lovecricket #cricketworld #worldcricket  #cricketer #indiancricket #indiancricketteam #teamindia #worldcup #cricketworldcup #worldcup2019 
#dhoni #msd #mahi #viratkohli #win
.
Follow > @info.cricket  @info.cricket  @info.cricket  @info.cricket  @info.cricket  @info.cricket  @info.cricket";}}}}s:9:"shortcode";s:11:"ByKBq8EFvjr";s:21:"edge_media_to_comment";O:8:"stdClass":1:{s:5:"count";i:3;}s:17:"comments_disabled";b:0;s:18:"taken_at_timestamp";i:1559369577;s:10:"dimensions";O:8:"stdClass":2:{s:6:"height";i:1312;s:5:"width";i:1080;}s:11:"display_url";s:192:"https://scontent-iad3-1.cdninstagram.com/vp/5c9518e533af03fb3b0ceb4f449d3418/5DDEC76A/t51.2885-15/e35/60529302_398571457402307_7185606067160615789_n.jpg?_nc_ht=scontent-iad3-1.cdninstagram.com";s:13:"edge_liked_by";O:8:"stdClass":1:{s:5:"count";i:131;}s:23:"edge_media_preview_like";O:8:"stdClass":1:{s:5:"count";i:131;}s:8:"location";N;s:11:"gating_info";N;s:13:"media_preview";N;s:5:"owner";O:8:"stdClass":2:{s:2:"id";s:10:"2563000666";s:8:"username";s:12:"info.cricket";}s:13:"thumbnail_src";s:226:"https://scontent-iad3-1.cdninstagram.com/vp/68f1c47c2e3083ae21328697713ce667/5DDDDDC6/t51.2885-15/sh0.08/e35/c0.116.1080.1080a/s640x640/60529302_398571457402307_7185606067160615789_n.jpg?_nc_ht=scontent-iad3-1.cdninstagram.com";s:19:"thumbnail_resources";a:5:{i:0;O:8:"stdClass":3:{s:3:"src";s:219:"https://scontent-iad3-1.cdninstagram.com/vp/101050d33b85eab9b59e987708e64a39/5E12600D/t51.2885-15/e35/c0.116.1080.1080a/s150x150/60529302_398571457402307_7185606067160615789_n.jpg?_nc_ht=scontent-iad3-1.cdninstagram.com";s:12:"config_width";i:150;s:13:"config_height";i:150;}i:1;O:8:"stdClass":3:{s:3:"src";s:219:"https://scontent-iad3-1.cdninstagram.com/vp/bbe6c88aaf3276019d12771f014ef3d3/5DD80E47/t51.2885-15/e35/c0.116.1080.1080a/s240x240/60529302_398571457402307_7185606067160615789_n.jpg?_nc_ht=scontent-iad3-1.cdninstagram.com";s:12:"config_width";i:240;s:13:"config_height";i:240;}i:2;O:8:"stdClass":3:{s:3:"src";s:219:"https://scontent-iad3-1.cdninstagram.com/vp/616ec4b615da15deab5c174fe14cf3c1/5E0D1DFD/t51.2885-15/e35/c0.116.1080.1080a/s320x320/60529302_398571457402307_7185606067160615789_n.jpg?_nc_ht=scontent-iad3-1.cdninstagram.com";s:12:"config_width";i:320;s:13:"config_height";i:320;}i:3;O:8:"stdClass":3:{s:3:"src";s:219:"https://scontent-iad3-1.cdninstagram.com/vp/08b5aca52febb68589609e961f38d28a/5DF727A7/t51.2885-15/e35/c0.116.1080.1080a/s480x480/60529302_398571457402307_7185606067160615789_n.jpg?_nc_ht=scontent-iad3-1.cdninstagram.com";s:12:"config_width";i:480;s:13:"config_height";i:480;}i:4;O:8:"stdClass":3:{s:3:"src";s:226:"https://scontent-iad3-1.cdninstagram.com/vp/68f1c47c2e3083ae21328697713ce667/5DDDDDC6/t51.2885-15/sh0.08/e35/c0.116.1080.1080a/s640x640/60529302_398571457402307_7185606067160615789_n.jpg?_nc_ht=scontent-iad3-1.cdninstagram.com";s:12:"config_width";i:640;s:13:"config_height";i:640;}}s:8:"is_video";b:0;s:21:"accessibility_caption";s:46:"Image may contain: one or more people and text";}}i:5;O:8:"stdClass":1:{s:4:"node";O:8:"stdClass":19:{s:10:"__typename";s:10:"GraphImage";s:2:"id";s:19:"2055017858317305599";s:21:"edge_media_to_caption";O:8:"stdClass":1:{s:5:"edges";a:1:{i:0;O:8:"stdClass":1:{s:4:"node";O:8:"stdClass":1:{s:4:"text";s:526:"🏆ICC CRICKET WORLD CUP OPENING MATCH 🏆
.
England vs South Africa 
Live 3:00 PM
Kennington Oval
.
#india #england #london #southafrica #icc #bcci  #cricket #cricketmerijaan #cricketfans #cricketlove #lovecricket #cricketworld #worldcricket  #cricketer #indiancricket #southafricacricket #englandcricket #worldcup #cricketworldcup #worldcup2019 #cwc19 #theoval #win #saveng #engvsa
#eoinmorgan #fafduplessis
.
Follow > @info.cricket  @info.cricket  @info.cricket  @info.cricket  @info.cricket  @info.cricket  @info.cricket";}}}}s:9:"shortcode";s:11:"ByE49qsFkb_";s:21:"edge_media_to_comment";O:8:"stdClass":1:{s:5:"count";i:1;}s:17:"comments_disabled";b:0;s:18:"taken_at_timestamp";i:1559197240;s:10:"dimensions";O:8:"stdClass":2:{s:6:"height";i:1087;s:5:"width";i:1080;}s:11:"display_url";s:192:"https://scontent-iad3-1.cdninstagram.com/vp/4c806ff44446ed2b4c7e35cbafcc2f34/5DD38CEB/t51.2885-15/e35/61109416_904187953264412_8564354636443269892_n.jpg?_nc_ht=scontent-iad3-1.cdninstagram.com";s:13:"edge_liked_by";O:8:"stdClass":1:{s:5:"count";i:66;}s:23:"edge_media_preview_like";O:8:"stdClass":1:{s:5:"count";i:66;}s:8:"location";N;s:11:"gating_info";N;s:13:"media_preview";N;s:5:"owner";O:8:"stdClass":2:{s:2:"id";s:10:"2563000666";s:8:"username";s:12:"info.cricket";}s:13:"thumbnail_src";s:224:"https://scontent-iad3-1.cdninstagram.com/vp/40aa65371da50f55d9469daf9b41d41e/5DD810A3/t51.2885-15/sh0.08/e35/c0.3.1080.1080a/s640x640/61109416_904187953264412_8564354636443269892_n.jpg?_nc_ht=scontent-iad3-1.cdninstagram.com";s:19:"thumbnail_resources";a:5:{i:0;O:8:"stdClass":3:{s:3:"src";s:217:"https://scontent-iad3-1.cdninstagram.com/vp/667c95e7bfbd7f5ac259b4254221c470/5E146DCB/t51.2885-15/e35/c0.3.1080.1080a/s150x150/61109416_904187953264412_8564354636443269892_n.jpg?_nc_ht=scontent-iad3-1.cdninstagram.com";s:12:"config_width";i:150;s:13:"config_height";i:150;}i:1;O:8:"stdClass":3:{s:3:"src";s:217:"https://scontent-iad3-1.cdninstagram.com/vp/a743cce0862ae009369c75df095b3670/5DF26A81/t51.2885-15/e35/c0.3.1080.1080a/s240x240/61109416_904187953264412_8564354636443269892_n.jpg?_nc_ht=scontent-iad3-1.cdninstagram.com";s:12:"config_width";i:240;s:13:"config_height";i:240;}i:2;O:8:"stdClass":3:{s:3:"src";s:217:"https://scontent-iad3-1.cdninstagram.com/vp/c3ddf043eec1197d9acaa04ed5bc36ec/5E0E9E3B/t51.2885-15/e35/c0.3.1080.1080a/s320x320/61109416_904187953264412_8564354636443269892_n.jpg?_nc_ht=scontent-iad3-1.cdninstagram.com";s:12:"config_width";i:320;s:13:"config_height";i:320;}i:3;O:8:"stdClass":3:{s:3:"src";s:217:"https://scontent-iad3-1.cdninstagram.com/vp/fdb0ed925e94dd55e624d6c95192c645/5DD36861/t51.2885-15/e35/c0.3.1080.1080a/s480x480/61109416_904187953264412_8564354636443269892_n.jpg?_nc_ht=scontent-iad3-1.cdninstagram.com";s:12:"config_width";i:480;s:13:"config_height";i:480;}i:4;O:8:"stdClass":3:{s:3:"src";s:224:"https://scontent-iad3-1.cdninstagram.com/vp/40aa65371da50f55d9469daf9b41d41e/5DD810A3/t51.2885-15/sh0.08/e35/c0.3.1080.1080a/s640x640/61109416_904187953264412_8564354636443269892_n.jpg?_nc_ht=scontent-iad3-1.cdninstagram.com";s:12:"config_width";i:640;s:13:"config_height";i:640;}}s:8:"is_video";b:0;s:21:"accessibility_caption";s:46:"Image may contain: one or more people and text";}}i:6;O:8:"stdClass":1:{s:4:"node";O:8:"stdClass":19:{s:10:"__typename";s:10:"GraphImage";s:2:"id";s:19:"2053112042798467994";s:21:"edge_media_to_caption";O:8:"stdClass":1:{s:5:"edges";a:1:{i:0;O:8:"stdClass":1:{s:4:"node";O:8:"stdClass":1:{s:4:"text";s:419:"Swagger then, swagger now.😍❤
.
#india #england #indian #icc #bcci  #cricket #cricketmerijaan #cricketfans #cricketlove #lovecricket #cricketworld #worldcricket  #cricketer #indiancricket #indiancricketteam #teamindia #worldcup #cricketworldcup #worldcup2019 #cwc19
#dhoni #msd #mahi #viratkohli #win
.
Follow > @info.cricket  @info.cricket  @info.cricket  @info.cricket  @info.cricket  @info.cricket  @info.cricket";}}}}s:9:"shortcode";s:11:"Bx-HoZrFEua";s:21:"edge_media_to_comment";O:8:"stdClass":1:{s:5:"count";i:2;}s:17:"comments_disabled";b:0;s:18:"taken_at_timestamp";i:1558970049;s:10:"dimensions";O:8:"stdClass":2:{s:6:"height";i:1165;s:5:"width";i:1080;}s:11:"display_url";s:192:"https://scontent-iad3-1.cdninstagram.com/vp/629df9e28be3e388095b71504edcac44/5E0F4591/t51.2885-15/e35/61017806_812025032515759_6526889958305223476_n.jpg?_nc_ht=scontent-iad3-1.cdninstagram.com";s:13:"edge_liked_by";O:8:"stdClass":1:{s:5:"count";i:392;}s:23:"edge_media_preview_like";O:8:"stdClass":1:{s:5:"count";i:392;}s:8:"location";N;s:11:"gating_info";N;s:13:"media_preview";N;s:5:"owner";O:8:"stdClass":2:{s:2:"id";s:10:"2563000666";s:8:"username";s:12:"info.cricket";}s:13:"thumbnail_src";s:224:"https://scontent-iad3-1.cdninstagram.com/vp/7cf691a205514de91b14aa4cb6d61f0b/5DE47142/t51.2885-15/sh0.08/e35/c0.42.1080.1080/s640x640/61017806_812025032515759_6526889958305223476_n.jpg?_nc_ht=scontent-iad3-1.cdninstagram.com";s:19:"thumbnail_resources";a:5:{i:0;O:8:"stdClass":3:{s:3:"src";s:217:"https://scontent-iad3-1.cdninstagram.com/vp/12844821b16b77a233af74a73afe5899/5DEFEC2A/t51.2885-15/e35/c0.42.1080.1080/s150x150/61017806_812025032515759_6526889958305223476_n.jpg?_nc_ht=scontent-iad3-1.cdninstagram.com";s:12:"config_width";i:150;s:13:"config_height";i:150;}i:1;O:8:"stdClass":3:{s:3:"src";s:217:"https://scontent-iad3-1.cdninstagram.com/vp/11f7f73445cd90d535a76a5c0c49a0df/5DF67460/t51.2885-15/e35/c0.42.1080.1080/s240x240/61017806_812025032515759_6526889958305223476_n.jpg?_nc_ht=scontent-iad3-1.cdninstagram.com";s:12:"config_width";i:240;s:13:"config_height";i:240;}i:2;O:8:"stdClass":3:{s:3:"src";s:217:"https://scontent-iad3-1.cdninstagram.com/vp/ec26784cb7937aea3bd14191e05fa6c7/5DDB0FDA/t51.2885-15/e35/c0.42.1080.1080/s320x320/61017806_812025032515759_6526889958305223476_n.jpg?_nc_ht=scontent-iad3-1.cdninstagram.com";s:12:"config_width";i:320;s:13:"config_height";i:320;}i:3;O:8:"stdClass":3:{s:3:"src";s:217:"https://scontent-iad3-1.cdninstagram.com/vp/cddb012f8c83a4ca0b2b5ecbf26c25d4/5DE02680/t51.2885-15/e35/c0.42.1080.1080/s480x480/61017806_812025032515759_6526889958305223476_n.jpg?_nc_ht=scontent-iad3-1.cdninstagram.com";s:12:"config_width";i:480;s:13:"config_height";i:480;}i:4;O:8:"stdClass":3:{s:3:"src";s:224:"https://scontent-iad3-1.cdninstagram.com/vp/7cf691a205514de91b14aa4cb6d61f0b/5DE47142/t51.2885-15/sh0.08/e35/c0.42.1080.1080/s640x640/61017806_812025032515759_6526889958305223476_n.jpg?_nc_ht=scontent-iad3-1.cdninstagram.com";s:12:"config_width";i:640;s:13:"config_height";i:640;}}s:8:"is_video";b:0;s:21:"accessibility_caption";s:63:"Image may contain: one or more people, people standing and text";}}i:7;O:8:"stdClass":1:{s:4:"node";O:8:"stdClass":19:{s:10:"__typename";s:10:"GraphImage";s:2:"id";s:19:"2052135199052303891";s:21:"edge_media_to_caption";O:8:"stdClass":1:{s:5:"edges";a:1:{i:0;O:8:"stdClass":1:{s:4:"node";O:8:"stdClass":1:{s:4:"text";s:403:"Comments yours ?
.
#india #england #indian #icc #bcci  #cricket #cricketmerijaan #cricketfans #cricketlove #lovecricket #cricketworld #worldcricket  #cricketer #indiancricket #indiancricketteam #teamindia #worldcup #cricketworldcup #worldcup2019 #cwc19 
#dhoni #msd #mahi #viratkohli #win
.
Follow > @info.cricket  @info.cricket  @info.cricket  @info.cricket  @info.cricket  @info.cricket  @info.cricket";}}}}s:9:"shortcode";s:11:"Bx6phdClo4T";s:21:"edge_media_to_comment";O:8:"stdClass":1:{s:5:"count";i:33;}s:17:"comments_disabled";b:0;s:18:"taken_at_timestamp";i:1558853600;s:10:"dimensions";O:8:"stdClass":2:{s:6:"height";i:1176;s:5:"width";i:1080;}s:11:"display_url";s:192:"https://scontent-iad3-1.cdninstagram.com/vp/b00bdc0ca968fb3887bfbbc873c71084/5E158E44/t51.2885-15/e35/60092233_316230512609882_7836608769797580737_n.jpg?_nc_ht=scontent-iad3-1.cdninstagram.com";s:13:"edge_liked_by";O:8:"stdClass":1:{s:5:"count";i:747;}s:23:"edge_media_preview_like";O:8:"stdClass":1:{s:5:"count";i:747;}s:8:"location";N;s:11:"gating_info";N;s:13:"media_preview";N;s:5:"owner";O:8:"stdClass":2:{s:2:"id";s:10:"2563000666";s:8:"username";s:12:"info.cricket";}s:13:"thumbnail_src";s:225:"https://scontent-iad3-1.cdninstagram.com/vp/33e005798954c9f8894d3b67fc778a1b/5E13E087/t51.2885-15/sh0.08/e35/c0.48.1080.1080a/s640x640/60092233_316230512609882_7836608769797580737_n.jpg?_nc_ht=scontent-iad3-1.cdninstagram.com";s:19:"thumbnail_resources";a:5:{i:0;O:8:"stdClass":3:{s:3:"src";s:218:"https://scontent-iad3-1.cdninstagram.com/vp/ef52d39fcd31ddc14021d3108f2a6bb1/5DF1759C/t51.2885-15/e35/c0.48.1080.1080a/s150x150/60092233_316230512609882_7836608769797580737_n.jpg?_nc_ht=scontent-iad3-1.cdninstagram.com";s:12:"config_width";i:150;s:13:"config_height";i:150;}i:1;O:8:"stdClass":3:{s:3:"src";s:218:"https://scontent-iad3-1.cdninstagram.com/vp/e2f381f163a546e4c6627002ee408d27/5DDC9DD6/t51.2885-15/e35/c0.48.1080.1080a/s240x240/60092233_316230512609882_7836608769797580737_n.jpg?_nc_ht=scontent-iad3-1.cdninstagram.com";s:12:"config_width";i:240;s:13:"config_height";i:240;}i:2;O:8:"stdClass":3:{s:3:"src";s:218:"https://scontent-iad3-1.cdninstagram.com/vp/bffce9aaf40279dfe073cca100804461/5DD8236C/t51.2885-15/e35/c0.48.1080.1080a/s320x320/60092233_316230512609882_7836608769797580737_n.jpg?_nc_ht=scontent-iad3-1.cdninstagram.com";s:12:"config_width";i:320;s:13:"config_height";i:320;}i:3;O:8:"stdClass":3:{s:3:"src";s:218:"https://scontent-iad3-1.cdninstagram.com/vp/aa9987a01482a20a4fe0bf5c62198532/5DF17C36/t51.2885-15/e35/c0.48.1080.1080a/s480x480/60092233_316230512609882_7836608769797580737_n.jpg?_nc_ht=scontent-iad3-1.cdninstagram.com";s:12:"config_width";i:480;s:13:"config_height";i:480;}i:4;O:8:"stdClass":3:{s:3:"src";s:225:"https://scontent-iad3-1.cdninstagram.com/vp/33e005798954c9f8894d3b67fc778a1b/5E13E087/t51.2885-15/sh0.08/e35/c0.48.1080.1080a/s640x640/60092233_316230512609882_7836608769797580737_n.jpg?_nc_ht=scontent-iad3-1.cdninstagram.com";s:12:"config_width";i:640;s:13:"config_height";i:640;}}s:8:"is_video";b:0;s:21:"accessibility_caption";s:52:"Image may contain: one or more people, meme and text";}}i:8;O:8:"stdClass":1:{s:4:"node";O:8:"stdClass":19:{s:10:"__typename";s:10:"GraphImage";s:2:"id";s:19:"2050712837837576740";s:21:"edge_media_to_caption";O:8:"stdClass":1:{s:5:"edges";a:1:{i:0;O:8:"stdClass":1:{s:4:"node";O:8:"stdClass":1:{s:4:"text";s:448:"Agree with @sachintendulkar ?
.
#india #england #australia #newzealand #pakistan #indian #icc #bcci  #cricket #cricketmerijaan #cricketfans #cricketlove #lovecricket #cricketworld #worldcricket  #cricketer #indiancricket #indiancricketteam #teamindia #worldcup #cricketworldcup #worldcup2019 #cwc19
#dhoni #msd #mahi #viratkohli #win
.
Follow > @info.cricket  @info.cricket  @info.cricket  @info.cricket  @info.cricket  @info.cricket  @info.cricket";}}}}s:9:"shortcode";s:11:"Bx1mHX7pFok";s:21:"edge_media_to_comment";O:8:"stdClass":1:{s:5:"count";i:6;}s:17:"comments_disabled";b:0;s:18:"taken_at_timestamp";i:1558684042;s:10:"dimensions";O:8:"stdClass":2:{s:6:"height";i:1288;s:5:"width";i:1080;}s:11:"display_url";s:192:"https://scontent-iad3-1.cdninstagram.com/vp/72cd74a78265cfffe76d9d0a61d2d446/5DD42882/t51.2885-15/e35/60652499_435811580582394_4488535034352845426_n.jpg?_nc_ht=scontent-iad3-1.cdninstagram.com";s:13:"edge_liked_by";O:8:"stdClass":1:{s:5:"count";i:397;}s:23:"edge_media_preview_like";O:8:"stdClass":1:{s:5:"count";i:397;}s:8:"location";N;s:11:"gating_info";N;s:13:"media_preview";N;s:5:"owner";O:8:"stdClass":2:{s:2:"id";s:10:"2563000666";s:8:"username";s:12:"info.cricket";}s:13:"thumbnail_src";s:225:"https://scontent-iad3-1.cdninstagram.com/vp/466ad4048bf2ea06eb4f41f27df97cce/5DDF33D4/t51.2885-15/sh0.08/e35/c0.104.1080.1080/s640x640/60652499_435811580582394_4488535034352845426_n.jpg?_nc_ht=scontent-iad3-1.cdninstagram.com";s:19:"thumbnail_resources";a:5:{i:0;O:8:"stdClass":3:{s:3:"src";s:218:"https://scontent-iad3-1.cdninstagram.com/vp/de048e2e2d1cc6435b73bc8cb98619a5/5DF835CF/t51.2885-15/e35/c0.104.1080.1080/s150x150/60652499_435811580582394_4488535034352845426_n.jpg?_nc_ht=scontent-iad3-1.cdninstagram.com";s:12:"config_width";i:150;s:13:"config_height";i:150;}i:1;O:8:"stdClass":3:{s:3:"src";s:218:"https://scontent-iad3-1.cdninstagram.com/vp/0a1d22113851be650922f609cbefffc2/5DD57A85/t51.2885-15/e35/c0.104.1080.1080/s240x240/60652499_435811580582394_4488535034352845426_n.jpg?_nc_ht=scontent-iad3-1.cdninstagram.com";s:12:"config_width";i:240;s:13:"config_height";i:240;}i:2;O:8:"stdClass":3:{s:3:"src";s:218:"https://scontent-iad3-1.cdninstagram.com/vp/8a1ac71846021ac3e1200e1410b6260a/5DF7B93F/t51.2885-15/e35/c0.104.1080.1080/s320x320/60652499_435811580582394_4488535034352845426_n.jpg?_nc_ht=scontent-iad3-1.cdninstagram.com";s:12:"config_width";i:320;s:13:"config_height";i:320;}i:3;O:8:"stdClass":3:{s:3:"src";s:218:"https://scontent-iad3-1.cdninstagram.com/vp/30f79c0ceb64bb393112ef3d64ce736f/5DD9D765/t51.2885-15/e35/c0.104.1080.1080/s480x480/60652499_435811580582394_4488535034352845426_n.jpg?_nc_ht=scontent-iad3-1.cdninstagram.com";s:12:"config_width";i:480;s:13:"config_height";i:480;}i:4;O:8:"stdClass":3:{s:3:"src";s:225:"https://scontent-iad3-1.cdninstagram.com/vp/466ad4048bf2ea06eb4f41f27df97cce/5DDF33D4/t51.2885-15/sh0.08/e35/c0.104.1080.1080/s640x640/60652499_435811580582394_4488535034352845426_n.jpg?_nc_ht=scontent-iad3-1.cdninstagram.com";s:12:"config_width";i:640;s:13:"config_height";i:640;}}s:8:"is_video";b:0;s:21:"accessibility_caption";s:61:"Image may contain: one or more people, meme, text and outdoor";}}i:9;O:8:"stdClass":1:{s:4:"node";O:8:"stdClass":19:{s:10:"__typename";s:10:"GraphImage";s:2:"id";s:19:"2049814678974336541";s:21:"edge_media_to_caption";O:8:"stdClass":1:{s:5:"edges";a:1:{i:0;O:8:"stdClass":1:{s:4:"node";O:8:"stdClass":1:{s:4:"text";s:462:"🏆 WORLD CUP CHAMPIONS 🏆
.
#india #england #westindies #windies #srilanka #pakistan #indian #icc #bcci #australia #cricket #cricketmerijaan #cricketfans #cricketlove #lovecricket #cricketworld #worldcricket  #cricketer #indiancricket #indiancricketteam #teamindia #worldcup #cricketworldcup #worldcup2019 
#dhoni #msd #mahi #viratkohli #win l
.
Follow > @info.cricket  @info.cricket  @info.cricket  @info.cricket  @info.cricket  @info.cricket  @info.cricket";}}}}s:9:"shortcode";s:11:"BxyZ5cTpY4d";s:21:"edge_media_to_comment";O:8:"stdClass":1:{s:5:"count";i:3;}s:17:"comments_disabled";b:0;s:18:"taken_at_timestamp";i:1558576973;s:10:"dimensions";O:8:"stdClass":2:{s:6:"height";i:1254;s:5:"width";i:1080;}s:11:"display_url";s:192:"https://scontent-iad3-1.cdninstagram.com/vp/bac7d7eb2fe73ea21a5e1475ac195bcf/5DD6A7CA/t51.2885-15/e35/60844635_412720779566464_9186647006372039519_n.jpg?_nc_ht=scontent-iad3-1.cdninstagram.com";s:13:"edge_liked_by";O:8:"stdClass":1:{s:5:"count";i:153;}s:23:"edge_media_preview_like";O:8:"stdClass":1:{s:5:"count";i:153;}s:8:"location";N;s:11:"gating_info";N;s:13:"media_preview";N;s:5:"owner";O:8:"stdClass":2:{s:2:"id";s:10:"2563000666";s:8:"username";s:12:"info.cricket";}s:13:"thumbnail_src";s:225:"https://scontent-iad3-1.cdninstagram.com/vp/6fa453d2d05dafca36cc46bcedc01d31/5E0F6BCE/t51.2885-15/sh0.08/e35/c0.87.1080.1080a/s640x640/60844635_412720779566464_9186647006372039519_n.jpg?_nc_ht=scontent-iad3-1.cdninstagram.com";s:19:"thumbnail_resources";a:5:{i:0;O:8:"stdClass":3:{s:3:"src";s:218:"https://scontent-iad3-1.cdninstagram.com/vp/9212b8e4f631e41f159ce10442bdb99b/5DDF92D5/t51.2885-15/e35/c0.87.1080.1080a/s150x150/60844635_412720779566464_9186647006372039519_n.jpg?_nc_ht=scontent-iad3-1.cdninstagram.com";s:12:"config_width";i:150;s:13:"config_height";i:150;}i:1;O:8:"stdClass":3:{s:3:"src";s:218:"https://scontent-iad3-1.cdninstagram.com/vp/bf1f9d79e66da6a3d5140a85465304e9/5DE3059F/t51.2885-15/e35/c0.87.1080.1080a/s240x240/60844635_412720779566464_9186647006372039519_n.jpg?_nc_ht=scontent-iad3-1.cdninstagram.com";s:12:"config_width";i:240;s:13:"config_height";i:240;}i:2;O:8:"stdClass":3:{s:3:"src";s:218:"https://scontent-iad3-1.cdninstagram.com/vp/a47e8a89a37df3528ecd3145a4921b1b/5E105825/t51.2885-15/e35/c0.87.1080.1080a/s320x320/60844635_412720779566464_9186647006372039519_n.jpg?_nc_ht=scontent-iad3-1.cdninstagram.com";s:12:"config_width";i:320;s:13:"config_height";i:320;}i:3;O:8:"stdClass":3:{s:3:"src";s:218:"https://scontent-iad3-1.cdninstagram.com/vp/a2f80ddc9cce766587836af401e01a96/5DE39D7F/t51.2885-15/e35/c0.87.1080.1080a/s480x480/60844635_412720779566464_9186647006372039519_n.jpg?_nc_ht=scontent-iad3-1.cdninstagram.com";s:12:"config_width";i:480;s:13:"config_height";i:480;}i:4;O:8:"stdClass":3:{s:3:"src";s:225:"https://scontent-iad3-1.cdninstagram.com/vp/6fa453d2d05dafca36cc46bcedc01d31/5E0F6BCE/t51.2885-15/sh0.08/e35/c0.87.1080.1080a/s640x640/60844635_412720779566464_9186647006372039519_n.jpg?_nc_ht=scontent-iad3-1.cdninstagram.com";s:12:"config_width";i:640;s:13:"config_height";i:640;}}s:8:"is_video";b:0;s:21:"accessibility_caption";s:46:"Image may contain: one or more people and text";}}i:10;O:8:"stdClass":1:{s:4:"node";O:8:"stdClass":19:{s:10:"__typename";s:10:"GraphImage";s:2:"id";s:19:"2049093464257541451";s:21:"edge_media_to_caption";O:8:"stdClass":1:{s:5:"edges";a:1:{i:0;O:8:"stdClass":1:{s:4:"node";O:8:"stdClass":1:{s:4:"text";s:503:"India all set to go to london for World Cup 2019
Congratulations team India 🇮🇳
.
#india #england #indian #icc #bcci #cricket #cricketmerijaan #cricketfans #cricketlove #lovecricket #cricketworld #worldcricket  #cricketer #indiancricket #indiancricketteam #teamindia #worldcup #cricketworldcup #worldcup2019 #viratrunmachinekohli
#dhoni #msd #mahi #viratkohli #win #congratulations
.
Follow > @info.cricket  @info.cricket  @info.cricket  @info.cricket  @info.cricket  @info.cricket  @info.cricket";}}}}s:9:"shortcode";s:11:"Bxv16YwpTVL";s:21:"edge_media_to_comment";O:8:"stdClass":1:{s:5:"count";i:0;}s:17:"comments_disabled";b:0;s:18:"taken_at_timestamp";i:1558490997;s:10:"dimensions";O:8:"stdClass":2:{s:6:"height";i:1121;s:5:"width";i:1080;}s:11:"display_url";s:192:"https://scontent-iad3-1.cdninstagram.com/vp/339d4ffb83c5fd1ad56348b761632cad/5DF2F62E/t51.2885-15/e35/59740156_737968456618773_4320610702857952978_n.jpg?_nc_ht=scontent-iad3-1.cdninstagram.com";s:13:"edge_liked_by";O:8:"stdClass":1:{s:5:"count";i:212;}s:23:"edge_media_preview_like";O:8:"stdClass":1:{s:5:"count";i:212;}s:8:"location";N;s:11:"gating_info";N;s:13:"media_preview";N;s:5:"owner";O:8:"stdClass":2:{s:2:"id";s:10:"2563000666";s:8:"username";s:12:"info.cricket";}s:13:"thumbnail_src";s:224:"https://scontent-iad3-1.cdninstagram.com/vp/8d95cfd459cd9294cd10776ec5ebd91b/5DF19596/t51.2885-15/sh0.08/e35/c0.20.1080.1080/s640x640/59740156_737968456618773_4320610702857952978_n.jpg?_nc_ht=scontent-iad3-1.cdninstagram.com";s:19:"thumbnail_resources";a:5:{i:0;O:8:"stdClass":3:{s:3:"src";s:217:"https://scontent-iad3-1.cdninstagram.com/vp/9ab5c83101fa3437e9ff27fd71a59597/5DD6D8FE/t51.2885-15/e35/c0.20.1080.1080/s150x150/59740156_737968456618773_4320610702857952978_n.jpg?_nc_ht=scontent-iad3-1.cdninstagram.com";s:12:"config_width";i:150;s:13:"config_height";i:150;}i:1;O:8:"stdClass":3:{s:3:"src";s:217:"https://scontent-iad3-1.cdninstagram.com/vp/92cedc56bdc485bd5245bd4c2615c1ae/5DE065B4/t51.2885-15/e35/c0.20.1080.1080/s240x240/59740156_737968456618773_4320610702857952978_n.jpg?_nc_ht=scontent-iad3-1.cdninstagram.com";s:12:"config_width";i:240;s:13:"config_height";i:240;}i:2;O:8:"stdClass":3:{s:3:"src";s:217:"https://scontent-iad3-1.cdninstagram.com/vp/db13fba6140d65043103c3af45ff28f4/5DF4190E/t51.2885-15/e35/c0.20.1080.1080/s320x320/59740156_737968456618773_4320610702857952978_n.jpg?_nc_ht=scontent-iad3-1.cdninstagram.com";s:12:"config_width";i:320;s:13:"config_height";i:320;}i:3;O:8:"stdClass":3:{s:3:"src";s:217:"https://scontent-iad3-1.cdninstagram.com/vp/4bfedf9d1d314832de72bdfef344c6f5/5DE17054/t51.2885-15/e35/c0.20.1080.1080/s480x480/59740156_737968456618773_4320610702857952978_n.jpg?_nc_ht=scontent-iad3-1.cdninstagram.com";s:12:"config_width";i:480;s:13:"config_height";i:480;}i:4;O:8:"stdClass":3:{s:3:"src";s:224:"https://scontent-iad3-1.cdninstagram.com/vp/8d95cfd459cd9294cd10776ec5ebd91b/5DF19596/t51.2885-15/sh0.08/e35/c0.20.1080.1080/s640x640/59740156_737968456618773_4320610702857952978_n.jpg?_nc_ht=scontent-iad3-1.cdninstagram.com";s:12:"config_width";i:640;s:13:"config_height";i:640;}}s:8:"is_video";b:0;s:21:"accessibility_caption";s:56:"Image may contain: one or more people and people sitting";}}i:11;O:8:"stdClass":1:{s:4:"node";O:8:"stdClass":19:{s:10:"__typename";s:10:"GraphImage";s:2:"id";s:19:"2048379271896280032";s:21:"edge_media_to_caption";O:8:"stdClass":1:{s:5:"edges";a:1:{i:0;O:8:"stdClass":1:{s:4:"node";O:8:"stdClass":1:{s:4:"text";s:441:"Let Me Know Your Pick 😉
.
#india #england #indian #icc #bcci #cricket #cricketmerijaan #cricketfans #cricketlove #lovecricket #cricketworld #worldcricket  #cricketer #indiancricket #indiancricketteam #teamindia #worldcup #cricketworldcup #worldcup2019 #viratrunmachinekohli
#dhoni #msd #mahi #viratkohli #win #hardikpandya
.
Follow -> @info.cricket  @info.cricket  @info.cricket  @info.cricket  @info.cricket  @info.cricket  @info.cricket";}}}}s:9:"shortcode";s:11:"BxtThhSpqvg";s:21:"edge_media_to_comment";O:8:"stdClass":1:{s:5:"count";i:41;}s:17:"comments_disabled";b:0;s:18:"taken_at_timestamp";i:1558405859;s:10:"dimensions";O:8:"stdClass":2:{s:6:"height";i:1080;s:5:"width";i:1080;}s:11:"display_url";s:193:"https://scontent-iad3-1.cdninstagram.com/vp/870e3dbcdf107fc8cf749d58e247d04d/5E130CBD/t51.2885-15/e35/59680653_2311326979193951_1234923867504127526_n.jpg?_nc_ht=scontent-iad3-1.cdninstagram.com";s:13:"edge_liked_by";O:8:"stdClass":1:{s:5:"count";i:170;}s:23:"edge_media_preview_like";O:8:"stdClass":1:{s:5:"count";i:170;}s:8:"location";N;s:11:"gating_info";N;s:13:"media_preview";N;s:5:"owner";O:8:"stdClass":2:{s:2:"id";s:10:"2563000666";s:8:"username";s:12:"info.cricket";}s:13:"thumbnail_src";s:209:"https://scontent-iad3-1.cdninstagram.com/vp/ec4a23a26ef121ed91208dde944c27f4/5DDA8507/t51.2885-15/sh0.08/e35/s640x640/59680653_2311326979193951_1234923867504127526_n.jpg?_nc_ht=scontent-iad3-1.cdninstagram.com";s:19:"thumbnail_resources";a:5:{i:0;O:8:"stdClass":3:{s:3:"src";s:202:"https://scontent-iad3-1.cdninstagram.com/vp/911ef25547096c2e3b6f31816933cc60/5DDE6782/t51.2885-15/e35/s150x150/59680653_2311326979193951_1234923867504127526_n.jpg?_nc_ht=scontent-iad3-1.cdninstagram.com";s:12:"config_width";i:150;s:13:"config_height";i:150;}i:1;O:8:"stdClass":3:{s:3:"src";s:202:"https://scontent-iad3-1.cdninstagram.com/vp/34f7fc7a88ad27f44b314d8856241419/5DE48284/t51.2885-15/e35/s240x240/59680653_2311326979193951_1234923867504127526_n.jpg?_nc_ht=scontent-iad3-1.cdninstagram.com";s:12:"config_width";i:240;s:13:"config_height";i:240;}i:2;O:8:"stdClass":3:{s:3:"src";s:202:"https://scontent-iad3-1.cdninstagram.com/vp/252f01ea7a91065ccc41582a438d17af/5DD2EAFA/t51.2885-15/e35/s320x320/59680653_2311326979193951_1234923867504127526_n.jpg?_nc_ht=scontent-iad3-1.cdninstagram.com";s:12:"config_width";i:320;s:13:"config_height";i:320;}i:3;O:8:"stdClass":3:{s:3:"src";s:202:"https://scontent-iad3-1.cdninstagram.com/vp/782b4fa5fa84ce485478b6fd2f0699d8/5DE1C5BD/t51.2885-15/e35/s480x480/59680653_2311326979193951_1234923867504127526_n.jpg?_nc_ht=scontent-iad3-1.cdninstagram.com";s:12:"config_width";i:480;s:13:"config_height";i:480;}i:4;O:8:"stdClass":3:{s:3:"src";s:209:"https://scontent-iad3-1.cdninstagram.com/vp/ec4a23a26ef121ed91208dde944c27f4/5DDA8507/t51.2885-15/sh0.08/e35/s640x640/59680653_2311326979193951_1234923867504127526_n.jpg?_nc_ht=scontent-iad3-1.cdninstagram.com";s:12:"config_width";i:640;s:13:"config_height";i:640;}}s:8:"is_video";b:0;s:21:"accessibility_caption";s:46:"Image may contain: one or more people and text";}}}}s:16:"edge_saved_media";O:8:"stdClass":3:{s:5:"count";i:0;s:9:"page_info";O:8:"stdClass":2:{s:13:"has_next_page";b:0;s:10:"end_cursor";N;}s:5:"edges";a:0:{}}s:22:"edge_media_collections";O:8:"stdClass":3:{s:5:"count";i:0;s:9:"page_info";O:8:"stdClass":2:{s:13:"has_next_page";b:0;s:10:"end_cursor";N;}s:5:"edges";a:0:{}}}