O:8:"stdClass":30:{s:9:"biography";s:51:"Web Developer.
PB 30 To 65..
19 Jan 🎂
💪 Lvr..";s:17:"blocked_by_viewer";b:0;s:13:"country_block";b:0;s:12:"external_url";N;s:24:"external_url_linkshimmed";N;s:16:"edge_followed_by";O:8:"stdClass":1:{s:5:"count";i:66;}s:18:"followed_by_viewer";b:0;s:11:"edge_follow";O:8:"stdClass":1:{s:5:"count";i:85;}s:14:"follows_viewer";b:0;s:9:"full_name";s:13:"Vikas kathpal";s:11:"has_channel";b:0;s:18:"has_blocked_viewer";b:0;s:20:"highlight_reel_count";i:0;s:20:"has_requested_viewer";b:0;s:2:"id";s:10:"2295676430";s:19:"is_business_account";b:0;s:18:"is_joined_recently";b:0;s:22:"business_category_name";N;s:10:"is_private";b:0;s:11:"is_verified";b:0;s:23:"edge_mutual_followed_by";O:8:"stdClass":2:{s:5:"count";i:0;s:5:"edges";a:0:{}}s:15:"profile_pic_url";s:197:"https://scontent-lax3-1.cdninstagram.com/vp/29e775e5898e22bdcc5b12b7dfbafd16/5D762F0D/t51.2885-19/s150x150/23101889_349347092158411_4024610473495232512_n.jpg?_nc_ht=scontent-lax3-1.cdninstagram.com";s:18:"profile_pic_url_hd";s:197:"https://scontent-lax3-1.cdninstagram.com/vp/f2bfe9dd983da5f7d4a32e8b147c1fcd/5D3EACFD/t51.2885-19/s320x320/23101889_349347092158411_4024610473495232512_n.jpg?_nc_ht=scontent-lax3-1.cdninstagram.com";s:19:"requested_by_viewer";b:0;s:8:"username";s:8:"_vikas_4";s:17:"connected_fb_page";N;s:25:"edge_felix_video_timeline";O:8:"stdClass":3:{s:5:"count";i:0;s:9:"page_info";O:8:"stdClass":2:{s:13:"has_next_page";b:0;s:10:"end_cursor";N;}s:5:"edges";a:0:{}}s:28:"edge_owner_to_timeline_media";O:8:"stdClass":3:{s:5:"count";i:5;s:9:"page_info";O:8:"stdClass":2:{s:13:"has_next_page";b:0;s:10:"end_cursor";N;}s:5:"edges";a:5:{i:0;O:8:"stdClass":1:{s:4:"node";O:8:"stdClass":19:{s:10:"__typename";s:10:"GraphVideo";s:2:"id";s:19:"1721878973077843960";s:21:"edge_media_to_caption";O:8:"stdClass":1:{s:5:"edges";a:0:{}}s:9:"shortcode";s:11:"BflV82YhO_4";s:21:"edge_media_to_comment";O:8:"stdClass":1:{s:5:"count";i:0;}s:17:"comments_disabled";b:0;s:18:"taken_at_timestamp";i:1519484059;s:10:"dimensions";O:8:"stdClass":2:{s:6:"height";i:750;s:5:"width";i:750;}s:11:"display_url";s:193:"https://scontent-lax3-1.cdninstagram.com/vp/c2b85432150918e4e4ea14af078d874e/5CC5714C/t51.2885-15/e35/27892087_1198828043585835_4824988246263988224_n.jpg?_nc_ht=scontent-lax3-1.cdninstagram.com";s:13:"edge_liked_by";O:8:"stdClass":1:{s:5:"count";i:8;}s:23:"edge_media_preview_like";O:8:"stdClass":1:{s:5:"count";i:8;}s:8:"location";O:8:"stdClass":4:{s:2:"id";s:8:"13413693";s:15:"has_public_page";b:1;s:4:"name";s:21:"Sector 17, Chandigarh";s:4:"slug";s:20:"sector-17-chandigarh";}s:11:"gating_info";N;s:13:"media_preview";s:64:"ACoq5qjNJS0AGTRmkooAWkoooAKKKKACiiigAooooAWikooAWiiigBKKWigD/9k=";s:5:"owner";O:8:"stdClass":2:{s:2:"id";s:10:"2295676430";s:8:"username";s:8:"_vikas_4";}s:13:"thumbnail_src";s:209:"https://scontent-lax3-1.cdninstagram.com/vp/b6ac052e12bd700cae92c0d12c602f78/5CC54336/t51.2885-15/sh0.08/e35/s640x640/27892087_1198828043585835_4824988246263988224_n.jpg?_nc_ht=scontent-lax3-1.cdninstagram.com";s:19:"thumbnail_resources";a:5:{i:0;O:8:"stdClass":3:{s:3:"src";s:202:"https://scontent-lax3-1.cdninstagram.com/vp/8ef72d0d414efe393a1799d2a980849f/5CC50FF3/t51.2885-15/e35/s150x150/27892087_1198828043585835_4824988246263988224_n.jpg?_nc_ht=scontent-lax3-1.cdninstagram.com";s:12:"config_width";i:150;s:13:"config_height";i:150;}i:1;O:8:"stdClass":3:{s:3:"src";s:202:"https://scontent-lax3-1.cdninstagram.com/vp/c39796ac77a150e737dbfbe18a2d3905/5CC506B5/t51.2885-15/e35/s240x240/27892087_1198828043585835_4824988246263988224_n.jpg?_nc_ht=scontent-lax3-1.cdninstagram.com";s:12:"config_width";i:240;s:13:"config_height";i:240;}i:2;O:8:"stdClass":3:{s:3:"src";s:202:"https://scontent-lax3-1.cdninstagram.com/vp/9ba09ea5ced342f9e23806bdc9b9a762/5CC5230B/t51.2885-15/e35/s320x320/27892087_1198828043585835_4824988246263988224_n.jpg?_nc_ht=scontent-lax3-1.cdninstagram.com";s:12:"config_width";i:320;s:13:"config_height";i:320;}i:3;O:8:"stdClass":3:{s:3:"src";s:202:"https://scontent-lax3-1.cdninstagram.com/vp/2572361f109987a379657b107d7f2289/5CC5208C/t51.2885-15/e35/s480x480/27892087_1198828043585835_4824988246263988224_n.jpg?_nc_ht=scontent-lax3-1.cdninstagram.com";s:12:"config_width";i:480;s:13:"config_height";i:480;}i:4;O:8:"stdClass":3:{s:3:"src";s:209:"https://scontent-lax3-1.cdninstagram.com/vp/b6ac052e12bd700cae92c0d12c602f78/5CC54336/t51.2885-15/sh0.08/e35/s640x640/27892087_1198828043585835_4824988246263988224_n.jpg?_nc_ht=scontent-lax3-1.cdninstagram.com";s:12:"config_width";i:640;s:13:"config_height";i:640;}}s:8:"is_video";b:1;s:16:"video_view_count";i:26;}}i:1;O:8:"stdClass":1:{s:4:"node";O:8:"stdClass":19:{s:10:"__typename";s:10:"GraphImage";s:2:"id";s:19:"1641325745009695585";s:21:"edge_media_to_caption";O:8:"stdClass":1:{s:5:"edges";a:0:{}}s:9:"shortcode";s:11:"BbHKRGoAZth";s:21:"edge_media_to_comment";O:8:"stdClass":1:{s:5:"count";i:0;}s:17:"comments_disabled";b:0;s:18:"taken_at_timestamp";i:1509881297;s:10:"dimensions";O:8:"stdClass":2:{s:6:"height";i:1080;s:5:"width";i:1080;}s:11:"display_url";s:193:"https://scontent-lax3-1.cdninstagram.com/vp/060ecc295efcf61de0b7646b81168e8a/5D3DB8A1/t51.2885-15/e35/23161253_1567413523343003_3858053836484640768_n.jpg?_nc_ht=scontent-lax3-1.cdninstagram.com";s:13:"edge_liked_by";O:8:"stdClass":1:{s:5:"count";i:17;}s:23:"edge_media_preview_like";O:8:"stdClass":1:{s:5:"count";i:17;}s:8:"location";O:8:"stdClass":4:{s:2:"id";s:15:"324946717947144";s:15:"has_public_page";b:1;s:4:"name";s:28:"Sri Muktsar Sahib • Punjab";s:4:"slug";s:24:"sri-muktsar-sahib-punjab";}s:11:"gating_info";N;s:13:"media_preview";s:320:"ACoqzcipihOFGOf0+tNVc/Q1ZEYcttx17+1BoRNaYGQefelgR2JUdRirZwqfkO5/UVJbJgknvjp7e9AmQfZpO5H60z7K/wDs/rWrik2U7E3MnYQPTHWommAYdQB6dT+PpTg5bluTTmiV+Tx9KRpYWK52HAy4IwAeoPYen41p2/3eeves9I0j5Gc+v+fWpNxHI4x6UCcSbz3aTYoxjqD2Hf6+2PWrWBWbIrbRIWLdfbH4+n5VH9rccbh+n+FMgqK2DUgfjB5FVxUg7VJqWRJ60Fxj0qtSZoGXUuvLTpu56Uv2yLvGPyFUaipmbR//2Q==";s:5:"owner";O:8:"stdClass":2:{s:2:"id";s:10:"2295676430";s:8:"username";s:8:"_vikas_4";}s:13:"thumbnail_src";s:209:"https://scontent-lax3-1.cdninstagram.com/vp/e0e84ae072e65848b320a93d88bc4705/5D56F31B/t51.2885-15/sh0.08/e35/s640x640/23161253_1567413523343003_3858053836484640768_n.jpg?_nc_ht=scontent-lax3-1.cdninstagram.com";s:19:"thumbnail_resources";a:5:{i:0;O:8:"stdClass":3:{s:3:"src";s:202:"https://scontent-lax3-1.cdninstagram.com/vp/b6101e17748ecdd3515f90153509880a/5D750F9E/t51.2885-15/e35/s150x150/23161253_1567413523343003_3858053836484640768_n.jpg?_nc_ht=scontent-lax3-1.cdninstagram.com";s:12:"config_width";i:150;s:13:"config_height";i:150;}i:1;O:8:"stdClass":3:{s:3:"src";s:202:"https://scontent-lax3-1.cdninstagram.com/vp/0ba86e39b0305d8481439a0b5372b559/5D529998/t51.2885-15/e35/s240x240/23161253_1567413523343003_3858053836484640768_n.jpg?_nc_ht=scontent-lax3-1.cdninstagram.com";s:12:"config_width";i:240;s:13:"config_height";i:240;}i:2;O:8:"stdClass":3:{s:3:"src";s:202:"https://scontent-lax3-1.cdninstagram.com/vp/543a20429be0d81712cfbbd48312e63b/5D6EBDE6/t51.2885-15/e35/s320x320/23161253_1567413523343003_3858053836484640768_n.jpg?_nc_ht=scontent-lax3-1.cdninstagram.com";s:12:"config_width";i:320;s:13:"config_height";i:320;}i:3;O:8:"stdClass":3:{s:3:"src";s:202:"https://scontent-lax3-1.cdninstagram.com/vp/a1ad995d53a0519ded85e5820013b7e8/5D55A3A1/t51.2885-15/e35/s480x480/23161253_1567413523343003_3858053836484640768_n.jpg?_nc_ht=scontent-lax3-1.cdninstagram.com";s:12:"config_width";i:480;s:13:"config_height";i:480;}i:4;O:8:"stdClass":3:{s:3:"src";s:209:"https://scontent-lax3-1.cdninstagram.com/vp/e0e84ae072e65848b320a93d88bc4705/5D56F31B/t51.2885-15/sh0.08/e35/s640x640/23161253_1567413523343003_3858053836484640768_n.jpg?_nc_ht=scontent-lax3-1.cdninstagram.com";s:12:"config_width";i:640;s:13:"config_height";i:640;}}s:8:"is_video";b:0;s:21:"accessibility_caption";s:31:"No photo description available.";}}i:2;O:8:"stdClass":1:{s:4:"node";O:8:"stdClass":19:{s:10:"__typename";s:10:"GraphImage";s:2:"id";s:19:"1640328204428487362";s:21:"edge_media_to_caption";O:8:"stdClass":1:{s:5:"edges";a:1:{i:0;O:8:"stdClass":1:{s:4:"node";O:8:"stdClass":1:{s:4:"text";s:8:"Waheguru";}}}}s:9:"shortcode";s:11:"BbDnc-kA6rC";s:21:"edge_media_to_comment";O:8:"stdClass":1:{s:5:"count";i:0;}s:17:"comments_disabled";b:0;s:18:"taken_at_timestamp";i:1509762381;s:10:"dimensions";O:8:"stdClass":2:{s:6:"height";i:371;s:5:"width";i:480;}s:11:"display_url";s:192:"https://scontent-lax3-1.cdninstagram.com/vp/d61ab006057353dd5cd82fdf924eaf88/5D523234/t51.2885-15/e35/23164389_142737736367316_8233672256002195456_n.jpg?_nc_ht=scontent-lax3-1.cdninstagram.com";s:13:"edge_liked_by";O:8:"stdClass":1:{s:5:"count";i:5;}s:23:"edge_media_preview_like";O:8:"stdClass":1:{s:5:"count";i:5;}s:8:"location";N;s:11:"gating_info";N;s:13:"media_preview";s:284:"ACogtCpAv1/KnJx2J+lTfNjv/wB8+31rhjG51ynZ2IQv1/KnFMVZHPGCPc1BcDOFHLZzt9Rj+lW49iVO5CeKM1HKRbhQ+cyZxgcDGKdisZJx3RqmmIBvwA23HXBxx/jmpxGVDYc8gAZYnBB5PXv3/wAKiSJh1U/lU4Q/3f0rWDaVtTOSu7poWOMI+4MSCMYLZ5J9P0qJ2fzFC4+QkknqexFShT/d/Sl2nrg5+laXfQz5e9ivdKZ2VjwEzx9aM1I6sex/Kotj+h/KsJcz3ubxSS6H/9k=";s:5:"owner";O:8:"stdClass":2:{s:2:"id";s:10:"2295676430";s:8:"username";s:8:"_vikas_4";}s:13:"thumbnail_src";s:206:"https://scontent-lax3-1.cdninstagram.com/vp/5918457d59c922e4ee400051c7c62fce/5D73345F/t51.2885-15/e35/c49.0.337.337/23164389_142737736367316_8233672256002195456_n.jpg?_nc_ht=scontent-lax3-1.cdninstagram.com";s:19:"thumbnail_resources";a:5:{i:0;O:8:"stdClass":3:{s:3:"src";s:215:"https://scontent-lax3-1.cdninstagram.com/vp/f25067b8f48c28da1dd81bdc122fdb31/5D5E7F1D/t51.2885-15/e35/c49.0.337.337/s150x150/23164389_142737736367316_8233672256002195456_n.jpg?_nc_ht=scontent-lax3-1.cdninstagram.com";s:12:"config_width";i:150;s:13:"config_height";i:150;}i:1;O:8:"stdClass":3:{s:3:"src";s:215:"https://scontent-lax3-1.cdninstagram.com/vp/c0c89ceb86182d8d979a3249fe9c1884/5D3BC357/t51.2885-15/e35/c49.0.337.337/s240x240/23164389_142737736367316_8233672256002195456_n.jpg?_nc_ht=scontent-lax3-1.cdninstagram.com";s:12:"config_width";i:240;s:13:"config_height";i:240;}i:2;O:8:"stdClass":3:{s:3:"src";s:215:"https://scontent-lax3-1.cdninstagram.com/vp/2616b049b39a247380858251874c7808/5D5672ED/t51.2885-15/e35/c49.0.337.337/s320x320/23164389_142737736367316_8233672256002195456_n.jpg?_nc_ht=scontent-lax3-1.cdninstagram.com";s:12:"config_width";i:320;s:13:"config_height";i:320;}i:3;O:8:"stdClass":3:{s:3:"src";s:206:"https://scontent-lax3-1.cdninstagram.com/vp/5918457d59c922e4ee400051c7c62fce/5D73345F/t51.2885-15/e35/c49.0.337.337/23164389_142737736367316_8233672256002195456_n.jpg?_nc_ht=scontent-lax3-1.cdninstagram.com";s:12:"config_width";i:480;s:13:"config_height";i:480;}i:4;O:8:"stdClass":3:{s:3:"src";s:206:"https://scontent-lax3-1.cdninstagram.com/vp/5918457d59c922e4ee400051c7c62fce/5D73345F/t51.2885-15/e35/c49.0.337.337/23164389_142737736367316_8233672256002195456_n.jpg?_nc_ht=scontent-lax3-1.cdninstagram.com";s:12:"config_width";i:640;s:13:"config_height";i:640;}}s:8:"is_video";b:0;s:21:"accessibility_caption";s:27:"Image may contain: 1 person";}}i:3;O:8:"stdClass":1:{s:4:"node";O:8:"stdClass":19:{s:10:"__typename";s:10:"GraphImage";s:2:"id";s:19:"1639921354541358845";s:21:"edge_media_to_caption";O:8:"stdClass":1:{s:5:"edges";a:0:{}}s:9:"shortcode";s:11:"BbCK8iFA979";s:21:"edge_media_to_comment";O:8:"stdClass":1:{s:5:"count";i:0;}s:17:"comments_disabled";b:0;s:18:"taken_at_timestamp";i:1509713881;s:10:"dimensions";O:8:"stdClass":2:{s:6:"height";i:640;s:5:"width";i:640;}s:11:"display_url";s:193:"https://scontent-lax3-1.cdninstagram.com/vp/ee3fe642ae7d481bbd66c47dffcc7fa4/5D3E415B/t51.2885-15/e35/23279201_1539867602764816_4109662250569039872_n.jpg?_nc_ht=scontent-lax3-1.cdninstagram.com";s:13:"edge_liked_by";O:8:"stdClass":1:{s:5:"count";i:15;}s:23:"edge_media_preview_like";O:8:"stdClass":1:{s:5:"count";i:15;}s:8:"location";O:8:"stdClass":4:{s:2:"id";s:9:"236492766";s:15:"has_public_page";b:1;s:4:"name";s:13:"Mohali, India";s:4:"slug";s:12:"mohali-india";}s:11:"gating_info";N;s:13:"media_preview";s:620:"ACoqVo2nQsuPwxyfT/8AX7U+K3mj3FwDx8vAJU47/wAj1qmzGItGDwDlfY9fy7VJa3TIrB25GCN2T35Hvx2ofkkdUoSSuvh3WnexX+2sh4VMHBK46n8/x+tSTCEgug5JxjOQSQCcAjnGfwNXT5DIWIAVySTjk9+B1GOB6elZhG4nd8v8Sjt839Mf0qk76JERSk/nov0EWXOQ4JUAfKDjJH3QT1x696pgP71dhhEz7TkDHb2/xq8LBPWnew5KMXZ7kkgLZxggjHI5H5ZqhJbuvUEj17fia0kjQ9/0qreyoU8qPk5Gcfy/P0pWsbawTUL99VoVfOV0G4ZZCoUdiO+f8KSabcgGPmY5ZuOfT8vTtUi2bhSNh3jH4nPr0qGd02hEGMfePqRT06HJK99Xf/gk1lIq5LH2xWmJhjo/5ViwjjPvWwIZBwCMfQ/41MjecUoxk27tGWzswIJ6UkUMkp+UH69B+dWIlDXIBGQX5B6HmtL+MjsCf51nc3q1HG1lurlxUx1JP9apTwW5yuxefTr+dQXjsqHBI+hppY/ZQc8+v40k+xwqN9b9bFCNVVtpOVz+OM1ZyvZXx9ap5K8jg4PSlV2IHJ6DvVvU6qujUeyR/9k=";s:5:"owner";O:8:"stdClass":2:{s:2:"id";s:10:"2295676430";s:8:"username";s:8:"_vikas_4";}s:13:"thumbnail_src";s:193:"https://scontent-lax3-1.cdninstagram.com/vp/ee3fe642ae7d481bbd66c47dffcc7fa4/5D3E415B/t51.2885-15/e35/23279201_1539867602764816_4109662250569039872_n.jpg?_nc_ht=scontent-lax3-1.cdninstagram.com";s:19:"thumbnail_resources";a:5:{i:0;O:8:"stdClass":3:{s:3:"src";s:202:"https://scontent-lax3-1.cdninstagram.com/vp/c41c5eaaf58e81c3711ffd1e864d95b4/5D3FC664/t51.2885-15/e35/s150x150/23279201_1539867602764816_4109662250569039872_n.jpg?_nc_ht=scontent-lax3-1.cdninstagram.com";s:12:"config_width";i:150;s:13:"config_height";i:150;}i:1;O:8:"stdClass":3:{s:3:"src";s:202:"https://scontent-lax3-1.cdninstagram.com/vp/6e5f5fbc7965b07fbc56e1dcfdc5539f/5D6FA762/t51.2885-15/e35/s240x240/23279201_1539867602764816_4109662250569039872_n.jpg?_nc_ht=scontent-lax3-1.cdninstagram.com";s:12:"config_width";i:240;s:13:"config_height";i:240;}i:2;O:8:"stdClass":3:{s:3:"src";s:202:"https://scontent-lax3-1.cdninstagram.com/vp/75ab1c66d2a33c2370e4b5b459943587/5D55A31C/t51.2885-15/e35/s320x320/23279201_1539867602764816_4109662250569039872_n.jpg?_nc_ht=scontent-lax3-1.cdninstagram.com";s:12:"config_width";i:320;s:13:"config_height";i:320;}i:3;O:8:"stdClass":3:{s:3:"src";s:202:"https://scontent-lax3-1.cdninstagram.com/vp/09117252bfda75b1d76d70f542ffdb2d/5D74AB5B/t51.2885-15/e35/s480x480/23279201_1539867602764816_4109662250569039872_n.jpg?_nc_ht=scontent-lax3-1.cdninstagram.com";s:12:"config_width";i:480;s:13:"config_height";i:480;}i:4;O:8:"stdClass":3:{s:3:"src";s:193:"https://scontent-lax3-1.cdninstagram.com/vp/ee3fe642ae7d481bbd66c47dffcc7fa4/5D3E415B/t51.2885-15/e35/23279201_1539867602764816_4109662250569039872_n.jpg?_nc_ht=scontent-lax3-1.cdninstagram.com";s:12:"config_width";i:640;s:13:"config_height";i:640;}}s:8:"is_video";b:0;s:21:"accessibility_caption";s:27:"Image may contain: 1 person";}}i:4;O:8:"stdClass":1:{s:4:"node";O:8:"stdClass":19:{s:10:"__typename";s:10:"GraphImage";s:2:"id";s:19:"1639335850909215142";s:21:"edge_media_to_caption";O:8:"stdClass":1:{s:5:"edges";a:0:{}}s:9:"shortcode";s:11:"BbAF0VVAamm";s:21:"edge_media_to_comment";O:8:"stdClass":1:{s:5:"count";i:0;}s:17:"comments_disabled";b:0;s:18:"taken_at_timestamp";i:1509644083;s:10:"dimensions";O:8:"stdClass":2:{s:6:"height";i:799;s:5:"width";i:640;}s:11:"display_url";s:192:"https://scontent-lax3-1.cdninstagram.com/vp/36759e454ec1e69e2d30fbfe26283fec/5D3C78AD/t51.2885-15/e35/23098688_188910104988231_5636558055266058240_n.jpg?_nc_ht=scontent-lax3-1.cdninstagram.com";s:13:"edge_liked_by";O:8:"stdClass":1:{s:5:"count";i:16;}s:23:"edge_media_preview_like";O:8:"stdClass":1:{s:5:"count";i:16;}s:8:"location";O:8:"stdClass":4:{s:2:"id";s:9:"236492766";s:15:"has_public_page";b:1;s:4:"name";s:13:"Mohali, India";s:4:"slug";s:12:"mohali-india";}s:11:"gating_info";N;s:13:"media_preview";s:252:"ACEq06rXbOFCodpY8npgD396tVVupFUfMCVOQf6UhlJI2tzvDZOR8vYgnHrWvWYksbsODnjvkYHetLOeRQDFooooAaTgVVdfN+Q42nr6/wCfWrdVwmzceuTx/nigCv8AZxCdyHrxyKvIeMVCQWU5647jH9TUyDAH0FAD6KSigCGSTZyOfxxVF7k7+OD+dTTfcP0rMbt9BVJCLizsWw2GB9quQzb8jGADxmsmL7wq5bdDRYDToqruPrRSA//Z";s:5:"owner";O:8:"stdClass":2:{s:2:"id";s:10:"2295676430";s:8:"username";s:8:"_vikas_4";}s:13:"thumbnail_src";s:207:"https://scontent-lax3-1.cdninstagram.com/vp/6fc37fbbfb44762e6288e0b4a0ba1429/5D58D03D/t51.2885-15/e35/c0.71.570.570a/23098688_188910104988231_5636558055266058240_n.jpg?_nc_ht=scontent-lax3-1.cdninstagram.com";s:19:"thumbnail_resources";a:5:{i:0;O:8:"stdClass":3:{s:3:"src";s:216:"https://scontent-lax3-1.cdninstagram.com/vp/e9be2fee25de8832dbead1452345197b/5D7671D7/t51.2885-15/e35/c0.71.570.570a/s150x150/23098688_188910104988231_5636558055266058240_n.jpg?_nc_ht=scontent-lax3-1.cdninstagram.com";s:12:"config_width";i:150;s:13:"config_height";i:150;}i:1;O:8:"stdClass":3:{s:3:"src";s:216:"https://scontent-lax3-1.cdninstagram.com/vp/5cef0a303e0bb9f6b5ff1b3ef3c56f65/5D569C9D/t51.2885-15/e35/c0.71.570.570a/s240x240/23098688_188910104988231_5636558055266058240_n.jpg?_nc_ht=scontent-lax3-1.cdninstagram.com";s:12:"config_width";i:240;s:13:"config_height";i:240;}i:2;O:8:"stdClass":3:{s:3:"src";s:216:"https://scontent-lax3-1.cdninstagram.com/vp/fd24add8ed6546408f4a0d8abbbab001/5D6DFB27/t51.2885-15/e35/c0.71.570.570a/s320x320/23098688_188910104988231_5636558055266058240_n.jpg?_nc_ht=scontent-lax3-1.cdninstagram.com";s:12:"config_width";i:320;s:13:"config_height";i:320;}i:3;O:8:"stdClass":3:{s:3:"src";s:216:"https://scontent-lax3-1.cdninstagram.com/vp/7de80833dec807d2352c88f87278b516/5D53E67D/t51.2885-15/e35/c0.71.570.570a/s480x480/23098688_188910104988231_5636558055266058240_n.jpg?_nc_ht=scontent-lax3-1.cdninstagram.com";s:12:"config_width";i:480;s:13:"config_height";i:480;}i:4;O:8:"stdClass":3:{s:3:"src";s:207:"https://scontent-lax3-1.cdninstagram.com/vp/6fc37fbbfb44762e6288e0b4a0ba1429/5D58D03D/t51.2885-15/e35/c0.71.570.570a/23098688_188910104988231_5636558055266058240_n.jpg?_nc_ht=scontent-lax3-1.cdninstagram.com";s:12:"config_width";i:640;s:13:"config_height";i:640;}}s:8:"is_video";b:0;s:21:"accessibility_caption";s:27:"Image may contain: 1 person";}}}}s:16:"edge_saved_media";O:8:"stdClass":3:{s:5:"count";i:0;s:9:"page_info";O:8:"stdClass":2:{s:13:"has_next_page";b:0;s:10:"end_cursor";N;}s:5:"edges";a:0:{}}s:22:"edge_media_collections";O:8:"stdClass":3:{s:5:"count";i:0;s:9:"page_info";O:8:"stdClass":2:{s:13:"has_next_page";b:0;s:10:"end_cursor";N;}s:5:"edges";a:0:{}}}