O:8:"stdClass":30:{s:9:"biography";s:132:"She/Her
Phan😺 + Misc😝
Fan Art Friday 🎨 
DM me art 💬
400 ducklings 🐤
No Posting Schedule 🙌
Kinda Rusty w/ Tags 🤷";s:17:"blocked_by_viewer";b:0;s:13:"country_block";b:0;s:12:"external_url";N;s:24:"external_url_linkshimmed";N;s:16:"edge_followed_by";O:8:"stdClass":1:{s:5:"count";i:515;}s:18:"followed_by_viewer";b:0;s:11:"edge_follow";O:8:"stdClass":1:{s:5:"count";i:66;}s:14:"follows_viewer";b:0;s:9:"full_name";s:11:"🍼Jen🍼";s:11:"has_channel";b:0;s:18:"has_blocked_viewer";b:0;s:20:"highlight_reel_count";i:0;s:20:"has_requested_viewer";b:0;s:2:"id";s:10:"3560935628";s:19:"is_business_account";b:1;s:18:"is_joined_recently";b:0;s:22:"business_category_name";s:37:"Non-Profits & Religious Organizations";s:10:"is_private";b:0;s:11:"is_verified";b:0;s:23:"edge_mutual_followed_by";O:8:"stdClass":2:{s:5:"count";i:0;s:5:"edges";a:0:{}}s:15:"profile_pic_url";s:198:"https://scontent-iad3-1.cdninstagram.com/vp/96189aa0913054f8f13e2443b25e7bdb/5DED2DE8/t51.2885-19/s150x150/19051408_1191076297704270_3978612597820751872_a.jpg?_nc_ht=scontent-iad3-1.cdninstagram.com";s:18:"profile_pic_url_hd";s:198:"https://scontent-iad3-1.cdninstagram.com/vp/b2bcc0611921d3d5c34d73cb66d0606e/5DE21890/t51.2885-19/s320x320/19051408_1191076297704270_3978612597820751872_a.jpg?_nc_ht=scontent-iad3-1.cdninstagram.com";s:19:"requested_by_viewer";b:0;s:8:"username";s:15:"cool_username_2";s:17:"connected_fb_page";N;s:25:"edge_felix_video_timeline";O:8:"stdClass":3:{s:5:"count";i:0;s:9:"page_info";O:8:"stdClass":2:{s:13:"has_next_page";b:0;s:10:"end_cursor";N;}s:5:"edges";a:0:{}}s:28:"edge_owner_to_timeline_media";O:8:"stdClass":3:{s:5:"count";i:492;s:9:"page_info";O:8:"stdClass":2:{s:13:"has_next_page";b:1;s:10:"end_cursor";s:120:"QVFCejBjQ0VMSzRrR2N5ZG9Gc1hvR0xkdFBuek9fRkVGVW51MzhQcE5BUVJoajdELXVOd1VqbmZ3Z3FqNnk5RVZOSEQzYVdUOFhjbkVGNUVhNXZUSmEzVw==";}s:5:"edges";a:12:{i:0;O:8:"stdClass":1:{s:4:"node";O:8:"stdClass":19:{s:10:"__typename";s:10:"GraphImage";s:2:"id";s:19:"2087569178549663139";s:21:"edge_media_to_caption";O:8:"stdClass":1:{s:5:"edges";a:1:{i:0;O:8:"stdClass":1:{s:4:"node";O:8:"stdClass":1:{s:4:"text";s:558:"This is Luke. Like many trans individuals, he has been neglected insurance on his top surgery. Please help him out but going to his go fund me @ www.gofundme.com/1p21tmlmpc
Sorry, I know this is random but it's a good cause. .
.
#danisnotonfire #danhowell #danielhowell #amazingphil #phillester #philliplester #danandphil #danhowellandphillester #danieljameshowellandphilipmichaellester #phan #phanart #lgbtq #lgbtq+ #lgbt #trans #trangender
#hehim #gay #pride #topsurgery #panicatthedisco #brendonurie #milesmckenna #mileschronicles #donate #gofundme #share";}}}}s:9:"shortcode";s:11:"Bz4iRuDgbWj";s:21:"edge_media_to_comment";O:8:"stdClass":1:{s:5:"count";i:3;}s:17:"comments_disabled";b:0;s:18:"taken_at_timestamp";i:1563077660;s:10:"dimensions";O:8:"stdClass":2:{s:6:"height";i:750;s:5:"width";i:750;}s:11:"display_url";s:192:"https://scontent-iad3-1.cdninstagram.com/vp/065140ae5c7946d8f3c5e6694f02cfa3/5DCB5E82/t51.2885-15/e35/66911240_457566251464277_9156168846846100732_n.jpg?_nc_ht=scontent-iad3-1.cdninstagram.com";s:13:"edge_liked_by";O:8:"stdClass":1:{s:5:"count";i:104;}s:23:"edge_media_preview_like";O:8:"stdClass":1:{s:5:"count";i:104;}s:8:"location";N;s:11:"gating_info";N;s:13:"media_preview";s:228:"ACoqrzkhup/OmIWx1P5mnXHWmIeKxNyXJ9T+Zqpub1P5mpjg9T2poUkdOfWgB0ZZsjPA68mrfPrUEa47fjmrGKYitc9ahU8VPc9agSTZ2yaQyOXKkdww7d89qsRgrwam7gkD8OcetRl1Y9Nv8/8AP1ouFiVO9PzVSVtq8dzSB29aYmSzgueOlQmPAq7J1FMP+NICntNKFqyQKbQBFKvFQ+WfSrx7U2i4H//Z";s:5:"owner";O:8:"stdClass":2:{s:2:"id";s:10:"3560935628";s:8:"username";s:15:"cool_username_2";}s:13:"thumbnail_src";s:208:"https://scontent-iad3-1.cdninstagram.com/vp/d4e758887c57da47f7e8f35b4ac814c5/5DCD3767/t51.2885-15/sh0.08/e35/s640x640/66911240_457566251464277_9156168846846100732_n.jpg?_nc_ht=scontent-iad3-1.cdninstagram.com";s:19:"thumbnail_resources";a:5:{i:0;O:8:"stdClass":3:{s:3:"src";s:201:"https://scontent-iad3-1.cdninstagram.com/vp/8aee65ddac750518a56a7d2bed892f29/5DB6A1C0/t51.2885-15/e35/s150x150/66911240_457566251464277_9156168846846100732_n.jpg?_nc_ht=scontent-iad3-1.cdninstagram.com";s:12:"config_width";i:150;s:13:"config_height";i:150;}i:1;O:8:"stdClass":3:{s:3:"src";s:201:"https://scontent-iad3-1.cdninstagram.com/vp/92bacbfb98ebcb0b9007096ac5b6e374/5DD0E98A/t51.2885-15/e35/s240x240/66911240_457566251464277_9156168846846100732_n.jpg?_nc_ht=scontent-iad3-1.cdninstagram.com";s:12:"config_width";i:240;s:13:"config_height";i:240;}i:2;O:8:"stdClass":3:{s:3:"src";s:201:"https://scontent-iad3-1.cdninstagram.com/vp/24793b0604fea7e045160d8bf4753f90/5DEC6E30/t51.2885-15/e35/s320x320/66911240_457566251464277_9156168846846100732_n.jpg?_nc_ht=scontent-iad3-1.cdninstagram.com";s:12:"config_width";i:320;s:13:"config_height";i:320;}i:3;O:8:"stdClass":3:{s:3:"src";s:201:"https://scontent-iad3-1.cdninstagram.com/vp/4921e3f56564f7e839d07bd10a21d66b/5DC95B6A/t51.2885-15/e35/s480x480/66911240_457566251464277_9156168846846100732_n.jpg?_nc_ht=scontent-iad3-1.cdninstagram.com";s:12:"config_width";i:480;s:13:"config_height";i:480;}i:4;O:8:"stdClass":3:{s:3:"src";s:208:"https://scontent-iad3-1.cdninstagram.com/vp/d4e758887c57da47f7e8f35b4ac814c5/5DCD3767/t51.2885-15/sh0.08/e35/s640x640/66911240_457566251464277_9156168846846100732_n.jpg?_nc_ht=scontent-iad3-1.cdninstagram.com";s:12:"config_width";i:640;s:13:"config_height";i:640;}}s:8:"is_video";b:0;s:21:"accessibility_caption";s:37:"Image may contain: one or more people";}}i:1;O:8:"stdClass":1:{s:4:"node";O:8:"stdClass":19:{s:10:"__typename";s:10:"GraphImage";s:2:"id";s:19:"2082126177459408293";s:21:"edge_media_to_caption";O:8:"stdClass":1:{s:5:"edges";a:1:{i:0;O:8:"stdClass":1:{s:4:"node";O:8:"stdClass":1:{s:4:"text";s:250:"HE WENT TO FUCKING PRIDE!!!!! IM SO PROUD AND SAD I DIDN'T GO
.
.
Dm me art
.
#danisnotonfire #danhowell #danielhowell #amazingphil #phillester #philliplester #danandphil #danhowellandphillester #danieljameshowellandphilipmichaellester #phan #phanart";}}}}s:9:"shortcode";s:11:"BzlMroRAo2l";s:21:"edge_media_to_comment";O:8:"stdClass":1:{s:5:"count";i:0;}s:17:"comments_disabled";b:0;s:18:"taken_at_timestamp";i:1562428804;s:10:"dimensions";O:8:"stdClass":2:{s:6:"height";i:937;s:5:"width";i:750;}s:11:"display_url";s:193:"https://scontent-iad3-1.cdninstagram.com/vp/3665e7d9ef8913ec23255c0d77057e58/5DE0F6E9/t51.2885-15/e35/66773453_2469269646629202_5140260631128457664_n.jpg?_nc_ht=scontent-iad3-1.cdninstagram.com";s:13:"edge_liked_by";O:8:"stdClass":1:{s:5:"count";i:191;}s:23:"edge_media_preview_like";O:8:"stdClass":1:{s:5:"count";i:191;}s:8:"location";N;s:11:"gating_info";N;s:13:"media_preview";s:548:"ACEq6asrVCV2YXfyePfGQfwxWi0gXg1kahL5oUK20jJPuD7Hqcjpj3oAzmmI6hlOc577c54Ixx+BFX7a7YyKgckEgYbrjH+0M5+lZ5R87jh8DHBwcNx9Cf0qSFyJ1cqQN4z3Azx1HWn18gfSx1NFFFIDmi+352OM49efb3/AVHlZFyrKQASSewBBwRg9enSrM3l/I4/gBwc8/X8KhUH5mjzvI2g98noSQPWsYXlZ2d/6XU1co2fKlbbzIW2ou8FcHP3T155x0J/zxSncCQCQAR1OeDjPrzjrjpjnFOFrJ5YWQldr5IHIOcdeRjH070rgjh9okYttORgAZ59M4OCOpHI5rdp7GaT3NnzpPb8xRWZvH95fzorH2VX+eP4/5B738v4ozZdQLMQoHl88dzz1z6+3SnR3r4wMqgA6AcY6c49azoRlwDyM10AAEeRwdp/rWzfXqF7baehEv7xjncVIzknufbjBH6+1VBM+7c2FQZGduOo4OeuTTo/9WvvnPv0qrkmTB6FTkdulRvqyyTYf7zfmKKSiiwr+R//Z";s:5:"owner";O:8:"stdClass":2:{s:2:"id";s:10:"3560935628";s:8:"username";s:15:"cool_username_2";}s:13:"thumbnail_src";s:223:"https://scontent-iad3-1.cdninstagram.com/vp/d6e97bfd4bc24472c5f6f5d83cc5f428/5DE158E9/t51.2885-15/sh0.08/e35/c0.90.720.720/s640x640/66773453_2469269646629202_5140260631128457664_n.jpg?_nc_ht=scontent-iad3-1.cdninstagram.com";s:19:"thumbnail_resources";a:5:{i:0;O:8:"stdClass":3:{s:3:"src";s:216:"https://scontent-iad3-1.cdninstagram.com/vp/4b20dfbea858bedce0b8c57f07bf1835/5DE1A8BF/t51.2885-15/e35/c0.90.720.720/s150x150/66773453_2469269646629202_5140260631128457664_n.jpg?_nc_ht=scontent-iad3-1.cdninstagram.com";s:12:"config_width";i:150;s:13:"config_height";i:150;}i:1;O:8:"stdClass":3:{s:3:"src";s:216:"https://scontent-iad3-1.cdninstagram.com/vp/b58344bee6eb125ed8a4b4eb08e31a8c/5DD377B9/t51.2885-15/e35/c0.90.720.720/s240x240/66773453_2469269646629202_5140260631128457664_n.jpg?_nc_ht=scontent-iad3-1.cdninstagram.com";s:12:"config_width";i:240;s:13:"config_height";i:240;}i:2;O:8:"stdClass":3:{s:3:"src";s:216:"https://scontent-iad3-1.cdninstagram.com/vp/5a61488fc0e75b0552d36b1a12edb46b/5DE4E2C7/t51.2885-15/e35/c0.90.720.720/s320x320/66773453_2469269646629202_5140260631128457664_n.jpg?_nc_ht=scontent-iad3-1.cdninstagram.com";s:12:"config_width";i:320;s:13:"config_height";i:320;}i:3;O:8:"stdClass":3:{s:3:"src";s:216:"https://scontent-iad3-1.cdninstagram.com/vp/cbe22de167b559b5f451459423754cf3/5DDE9380/t51.2885-15/e35/c0.90.720.720/s480x480/66773453_2469269646629202_5140260631128457664_n.jpg?_nc_ht=scontent-iad3-1.cdninstagram.com";s:12:"config_width";i:480;s:13:"config_height";i:480;}i:4;O:8:"stdClass":3:{s:3:"src";s:223:"https://scontent-iad3-1.cdninstagram.com/vp/d6e97bfd4bc24472c5f6f5d83cc5f428/5DE158E9/t51.2885-15/sh0.08/e35/c0.90.720.720/s640x640/66773453_2469269646629202_5140260631128457664_n.jpg?_nc_ht=scontent-iad3-1.cdninstagram.com";s:12:"config_width";i:640;s:13:"config_height";i:640;}}s:8:"is_video";b:0;s:21:"accessibility_caption";s:37:"Image may contain: one or more people";}}i:2;O:8:"stdClass":1:{s:4:"node";O:8:"stdClass":19:{s:10:"__typename";s:10:"GraphImage";s:2:"id";s:19:"2081717892499540173";s:21:"edge_media_to_caption";O:8:"stdClass":1:{s:5:"edges";a:1:{i:0;O:8:"stdClass":1:{s:4:"node";O:8:"stdClass":1:{s:4:"text";s:220:"Creds to @truk_arty
Phan Art Friday
Dm me art
.
#danisnotonfire #danhowell #danielhowell #amazingphil #phillester #philliplester #danandphil #danhowellandphillester #danieljameshowellandphilipmichaellester #phan #phanart";}}}}s:9:"shortcode";s:11:"Bzjv2TRAojN";s:21:"edge_media_to_comment";O:8:"stdClass":1:{s:5:"count";i:1;}s:17:"comments_disabled";b:0;s:18:"taken_at_timestamp";i:1562380132;s:10:"dimensions";O:8:"stdClass":2:{s:6:"height";i:750;s:5:"width";i:750;}s:11:"display_url";s:192:"https://scontent-iad3-1.cdninstagram.com/vp/e324ca79a6f2268e29a858bc61edc72b/5DB4150A/t51.2885-15/e35/66034759_156195398878757_4606483769676489059_n.jpg?_nc_ht=scontent-iad3-1.cdninstagram.com";s:13:"edge_liked_by";O:8:"stdClass":1:{s:5:"count";i:161;}s:23:"edge_media_preview_like";O:8:"stdClass":1:{s:5:"count";i:161;}s:8:"location";N;s:11:"gating_info";N;s:13:"media_preview";s:440:"ACoq2gKiluFiOzqx/T61MKojDymQjIBx+VAEiXGDh/0/nVqqLxI251zwM+xq4zrGu5jgcD8+BQA6kpTSUAKpqs6bX2L/ABjcOcc9/wD9Xeh5Du2Lx1y3pj9KhlmEQJfliMDv+P0oAmclIznsCSAe35cZqCVS5kz8yEIdp7Yxn8MZqRssxT7pZOvbPr+OelZd3OXwwyuPlYZ6/X6c1HNdqN7X0/r8hP3dWbEFzHNxGc7QPy9s1PiuZsJfImAPTOPwP+RXTZq7W0KfRrZq5WkTJx2JqmYlmcwt/AnB9z/kVqCsnUgAARwcj+RpPYcVdpdx3mMwVmwShwcdPQ/rVe6jy7L2cZH1/wD1iiD/AFb/AI1Nc9Y/x/pXnvSf3/hqVWVv67GKx6N+BrdTUlCgEc4GfrWJJ0b/AHv60CvTlrZ90mTS96Nn0Z//2Q==";s:5:"owner";O:8:"stdClass":2:{s:2:"id";s:10:"3560935628";s:8:"username";s:15:"cool_username_2";}s:13:"thumbnail_src";s:208:"https://scontent-iad3-1.cdninstagram.com/vp/0653b069f481b10d7ea64d0dfd123d24/5DDF96EF/t51.2885-15/sh0.08/e35/s640x640/66034759_156195398878757_4606483769676489059_n.jpg?_nc_ht=scontent-iad3-1.cdninstagram.com";s:19:"thumbnail_resources";a:5:{i:0;O:8:"stdClass":3:{s:3:"src";s:201:"https://scontent-iad3-1.cdninstagram.com/vp/67fcebc1fa2ca6222e48773041e22aab/5DD3A748/t51.2885-15/e35/s150x150/66034759_156195398878757_4606483769676489059_n.jpg?_nc_ht=scontent-iad3-1.cdninstagram.com";s:12:"config_width";i:150;s:13:"config_height";i:150;}i:1;O:8:"stdClass":3:{s:3:"src";s:201:"https://scontent-iad3-1.cdninstagram.com/vp/9f9de53cf74b19ce1c8838ef4d0ccb0a/5DE5EC02/t51.2885-15/e35/s240x240/66034759_156195398878757_4606483769676489059_n.jpg?_nc_ht=scontent-iad3-1.cdninstagram.com";s:12:"config_width";i:240;s:13:"config_height";i:240;}i:2;O:8:"stdClass":3:{s:3:"src";s:201:"https://scontent-iad3-1.cdninstagram.com/vp/8b887fc6b33a416b6e03e39c00e10b3b/5DCF9DB8/t51.2885-15/e35/s320x320/66034759_156195398878757_4606483769676489059_n.jpg?_nc_ht=scontent-iad3-1.cdninstagram.com";s:12:"config_width";i:320;s:13:"config_height";i:320;}i:3;O:8:"stdClass":3:{s:3:"src";s:201:"https://scontent-iad3-1.cdninstagram.com/vp/0a0cb08cda134788fb80477911594337/5DB43CE2/t51.2885-15/e35/s480x480/66034759_156195398878757_4606483769676489059_n.jpg?_nc_ht=scontent-iad3-1.cdninstagram.com";s:12:"config_width";i:480;s:13:"config_height";i:480;}i:4;O:8:"stdClass":3:{s:3:"src";s:208:"https://scontent-iad3-1.cdninstagram.com/vp/0653b069f481b10d7ea64d0dfd123d24/5DDF96EF/t51.2885-15/sh0.08/e35/s640x640/66034759_156195398878757_4606483769676489059_n.jpg?_nc_ht=scontent-iad3-1.cdninstagram.com";s:12:"config_width";i:640;s:13:"config_height";i:640;}}s:8:"is_video";b:0;s:21:"accessibility_caption";s:31:"No photo description available.";}}i:3;O:8:"stdClass":1:{s:4:"node";O:8:"stdClass":19:{s:10:"__typename";s:10:"GraphImage";s:2:"id";s:19:"2081716956188155201";s:21:"edge_media_to_caption";O:8:"stdClass":1:{s:5:"edges";a:1:{i:0;O:8:"stdClass":1:{s:4:"node";O:8:"stdClass":1:{s:4:"text";s:219:"Creds to @em._x13 
Phan Art Friday
Dm me art
.
#danisnotonfire #danhowell #danielhowell #amazingphil #phillester #philliplester #danandphil #danhowellandphillester #danieljameshowellandphilipmichaellester #phan #phanart";}}}}s:9:"shortcode";s:11:"BzjvorQgJ1B";s:21:"edge_media_to_comment";O:8:"stdClass":1:{s:5:"count";i:1;}s:17:"comments_disabled";b:0;s:18:"taken_at_timestamp";i:1562380021;s:10:"dimensions";O:8:"stdClass":2:{s:6:"height";i:937;s:5:"width";i:750;}s:11:"display_url";s:192:"https://scontent-iad3-1.cdninstagram.com/vp/6ac9c0d4f05424c21df19ef2e4e0e546/5DEC7531/t51.2885-15/e35/66387824_638166180014645_2570298990571188639_n.jpg?_nc_ht=scontent-iad3-1.cdninstagram.com";s:13:"edge_liked_by";O:8:"stdClass":1:{s:5:"count";i:107;}s:23:"edge_media_preview_like";O:8:"stdClass":1:{s:5:"count";i:107;}s:8:"location";N;s:11:"gating_info";N;s:13:"media_preview";s:188:"ACEqtRpv74qTyfemwNjNSNJg+tTcpIaIfU/pSPGFGcmliJPFLN938aV9R20uV6KSirIJYe9SoD2wPUnr/hTIvuZHXNT9KkaGkYOc5zUMx6VYAFVpuoqbap/1sXfRr+tyKim0VoZksUgAK9+v4VYDbuhFUKKANHcBVKRw5yOR61HS0rDuFFFFMR//2Q==";s:5:"owner";O:8:"stdClass":2:{s:2:"id";s:10:"3560935628";s:8:"username";s:15:"cool_username_2";}s:13:"thumbnail_src";s:222:"https://scontent-iad3-1.cdninstagram.com/vp/e8ab22279dff746e47f71b95539f8a7d/5DCD9985/t51.2885-15/sh0.08/e35/c0.90.720.720/s640x640/66387824_638166180014645_2570298990571188639_n.jpg?_nc_ht=scontent-iad3-1.cdninstagram.com";s:19:"thumbnail_resources";a:5:{i:0;O:8:"stdClass":3:{s:3:"src";s:215:"https://scontent-iad3-1.cdninstagram.com/vp/98f3037e63680794b820f5a116d78c19/5DC90ECC/t51.2885-15/e35/c0.90.720.720/s150x150/66387824_638166180014645_2570298990571188639_n.jpg?_nc_ht=scontent-iad3-1.cdninstagram.com";s:12:"config_width";i:150;s:13:"config_height";i:150;}i:1;O:8:"stdClass":3:{s:3:"src";s:215:"https://scontent-iad3-1.cdninstagram.com/vp/ff3c9e951ab3d7367a7a4aba4684027c/5DE1DE86/t51.2885-15/e35/c0.90.720.720/s240x240/66387824_638166180014645_2570298990571188639_n.jpg?_nc_ht=scontent-iad3-1.cdninstagram.com";s:12:"config_width";i:240;s:13:"config_height";i:240;}i:2;O:8:"stdClass":3:{s:3:"src";s:215:"https://scontent-iad3-1.cdninstagram.com/vp/85f20983141540463a575ac9b4340153/5DB3503C/t51.2885-15/e35/c0.90.720.720/s320x320/66387824_638166180014645_2570298990571188639_n.jpg?_nc_ht=scontent-iad3-1.cdninstagram.com";s:12:"config_width";i:320;s:13:"config_height";i:320;}i:3;O:8:"stdClass":3:{s:3:"src";s:215:"https://scontent-iad3-1.cdninstagram.com/vp/6932c986e059f28528f5e0e73aa184f6/5DEE9766/t51.2885-15/e35/c0.90.720.720/s480x480/66387824_638166180014645_2570298990571188639_n.jpg?_nc_ht=scontent-iad3-1.cdninstagram.com";s:12:"config_width";i:480;s:13:"config_height";i:480;}i:4;O:8:"stdClass":3:{s:3:"src";s:222:"https://scontent-iad3-1.cdninstagram.com/vp/e8ab22279dff746e47f71b95539f8a7d/5DCD9985/t51.2885-15/sh0.08/e35/c0.90.720.720/s640x640/66387824_638166180014645_2570298990571188639_n.jpg?_nc_ht=scontent-iad3-1.cdninstagram.com";s:12:"config_width";i:640;s:13:"config_height";i:640;}}s:8:"is_video";b:0;s:21:"accessibility_caption";s:26:"Image may contain: drawing";}}i:4;O:8:"stdClass":1:{s:4:"node";O:8:"stdClass":19:{s:10:"__typename";s:10:"GraphImage";s:2:"id";s:19:"2081716061333603356";s:21:"edge_media_to_caption";O:8:"stdClass":1:{s:5:"edges";a:1:{i:0;O:8:"stdClass":1:{s:4:"node";O:8:"stdClass":1:{s:4:"text";s:227:"Creds to @lordradishfallen
Phan Art Friday
Dm me art
.
#danisnotonfire #danhowell #danielhowell #amazingphil #phillester #philliplester #danandphil #danhowellandphillester #danieljameshowellandphilipmichaellester #phan #phanart";}}}}s:9:"shortcode";s:11:"Bzjvbp3A8Qc";s:21:"edge_media_to_comment";O:8:"stdClass":1:{s:5:"count";i:1;}s:17:"comments_disabled";b:0;s:18:"taken_at_timestamp";i:1562379914;s:10:"dimensions";O:8:"stdClass":2:{s:6:"height";i:937;s:5:"width";i:750;}s:11:"display_url";s:192:"https://scontent-iad3-1.cdninstagram.com/vp/e348405a45555b8fa047d42b2ea9ffe5/5DE861E3/t51.2885-15/e35/65004679_895658807441114_7717917400384352670_n.jpg?_nc_ht=scontent-iad3-1.cdninstagram.com";s:13:"edge_liked_by";O:8:"stdClass":1:{s:5:"count";i:1519;}s:23:"edge_media_preview_like";O:8:"stdClass":1:{s:5:"count";i:1519;}s:8:"location";N;s:11:"gating_info";N;s:13:"media_preview";s:384:"ACEqlNxLvYBj1/8A1dqnE0rDhiT+P+FMKOCcDjJpJInYcBl7nBwSPr2qTVlhrhohlm+v1qVJmfkE4qhaxtIhLZbDYUnHzAdz646Z9qvx/uyVPJ4Of8+lZ+9fXYltW8x+5/U0Uu8UVoSVrkPGrPGC7dlxnknGfw61lNdzFGSYMGBGMKRx3Bx17e1aFxM6y8btqjIxwD65Pf0FWF3OAx64B4qthXuVLaeSddroY8YwcEAj2z0I9KtbRnPcd+9Upp5FcogztxnJPOefWtEIOvelYBlFSbaKLAUrsvtGOhOP5Y/lVt90URK/MyjgDnmpnAKH6GpABgfSmLqYsE77T5gYyDnlcZ9AMCp7J5m3CYHjGCRj8PetOm4pgMoqTAooA//Z";s:5:"owner";O:8:"stdClass":2:{s:2:"id";s:10:"3560935628";s:8:"username";s:15:"cool_username_2";}s:13:"thumbnail_src";s:223:"https://scontent-iad3-1.cdninstagram.com/vp/81dc5b81856bfc6f0ed09ece98de160c/5DD29777/t51.2885-15/sh0.08/e35/c0.90.720.720a/s640x640/65004679_895658807441114_7717917400384352670_n.jpg?_nc_ht=scontent-iad3-1.cdninstagram.com";s:19:"thumbnail_resources";a:5:{i:0;O:8:"stdClass":3:{s:3:"src";s:216:"https://scontent-iad3-1.cdninstagram.com/vp/d417728c9eb9f80628a8756ddf4158ed/5DC7857D/t51.2885-15/e35/c0.90.720.720a/s150x150/65004679_895658807441114_7717917400384352670_n.jpg?_nc_ht=scontent-iad3-1.cdninstagram.com";s:12:"config_width";i:150;s:13:"config_height";i:150;}i:1;O:8:"stdClass":3:{s:3:"src";s:216:"https://scontent-iad3-1.cdninstagram.com/vp/b447d0f0dbb78d67d258e1a8c945d8d2/5DB43537/t51.2885-15/e35/c0.90.720.720a/s240x240/65004679_895658807441114_7717917400384352670_n.jpg?_nc_ht=scontent-iad3-1.cdninstagram.com";s:12:"config_width";i:240;s:13:"config_height";i:240;}i:2;O:8:"stdClass":3:{s:3:"src";s:216:"https://scontent-iad3-1.cdninstagram.com/vp/999aeb1437d1a2c46471431bf23a2d1c/5DB4608D/t51.2885-15/e35/c0.90.720.720a/s320x320/65004679_895658807441114_7717917400384352670_n.jpg?_nc_ht=scontent-iad3-1.cdninstagram.com";s:12:"config_width";i:320;s:13:"config_height";i:320;}i:3;O:8:"stdClass":3:{s:3:"src";s:216:"https://scontent-iad3-1.cdninstagram.com/vp/7b4514c056fe6a98aaee248ba407fbec/5DD22BD7/t51.2885-15/e35/c0.90.720.720a/s480x480/65004679_895658807441114_7717917400384352670_n.jpg?_nc_ht=scontent-iad3-1.cdninstagram.com";s:12:"config_width";i:480;s:13:"config_height";i:480;}i:4;O:8:"stdClass":3:{s:3:"src";s:223:"https://scontent-iad3-1.cdninstagram.com/vp/81dc5b81856bfc6f0ed09ece98de160c/5DD29777/t51.2885-15/sh0.08/e35/c0.90.720.720a/s640x640/65004679_895658807441114_7717917400384352670_n.jpg?_nc_ht=scontent-iad3-1.cdninstagram.com";s:12:"config_width";i:640;s:13:"config_height";i:640;}}s:8:"is_video";b:0;s:21:"accessibility_caption";s:31:"No photo description available.";}}i:5;O:8:"stdClass":1:{s:4:"node";O:8:"stdClass":19:{s:10:"__typename";s:10:"GraphImage";s:2:"id";s:19:"2081715030289674895";s:21:"edge_media_to_caption";O:8:"stdClass":1:{s:5:"edges";a:1:{i:0;O:8:"stdClass":1:{s:4:"node";O:8:"stdClass":1:{s:4:"text";s:224:"Creds to @lyn.modeling 
Phan Art Friday
Dm me art
.
#danisnotonfire #danhowell #danielhowell #amazingphil #phillester #philliplester #danandphil #danhowellandphillester #danieljameshowellandphilipmichaellester #phan #phanart";}}}}s:9:"shortcode";s:11:"BzjvMpoAfKP";s:21:"edge_media_to_comment";O:8:"stdClass":1:{s:5:"count";i:1;}s:17:"comments_disabled";b:0;s:18:"taken_at_timestamp";i:1562379791;s:10:"dimensions";O:8:"stdClass":2:{s:6:"height";i:640;s:5:"width";i:640;}s:11:"display_url";s:192:"https://scontent-iad3-1.cdninstagram.com/vp/25adc82c410f0032fa15dde3a6b0fe85/5DB387A4/t51.2885-15/e35/65751728_463009607828552_3468868514225191062_n.jpg?_nc_ht=scontent-iad3-1.cdninstagram.com";s:13:"edge_liked_by";O:8:"stdClass":1:{s:5:"count";i:95;}s:23:"edge_media_preview_like";O:8:"stdClass":1:{s:5:"count";i:95;}s:8:"location";N;s:11:"gating_info";N;s:13:"media_preview";s:340:"ACoqnmnZGI7AD064zj/GsttSmzwQB24FT3m+afyl6ADPsD1P+etW47eOP7oH1PJ/Wk2NIzP7Rn9R/wB8ij+0Z/Uf98irz2MTsW5GewPFV4LANMF3AoOTg88diPf1ouOxuwoSgL/eI5pCMGrFV26mmSUSG8yQrjPy4z9P5e1Q/MDhnYt/dVcf0NWGceaU74GPyp9QzRbCFdykHntzTYB5R3bVHbgf1wKkUjkGm528+lIZoI4cZFQt1NQI+07hU5OefWrTuQ1YzpwBLu78c1YqYop5IB/CjaPSkwTK5B7Goy2x/Y1dwKTYp6gflSsU2VwMZHbrVgdKXApaaJbuf//Z";s:5:"owner";O:8:"stdClass":2:{s:2:"id";s:10:"3560935628";s:8:"username";s:15:"cool_username_2";}s:13:"thumbnail_src";s:192:"https://scontent-iad3-1.cdninstagram.com/vp/25adc82c410f0032fa15dde3a6b0fe85/5DB387A4/t51.2885-15/e35/65751728_463009607828552_3468868514225191062_n.jpg?_nc_ht=scontent-iad3-1.cdninstagram.com";s:19:"thumbnail_resources";a:5:{i:0;O:8:"stdClass":3:{s:3:"src";s:201:"https://scontent-iad3-1.cdninstagram.com/vp/9913d5c4420c7d385180baa6cf21ab7c/5DD425E6/t51.2885-15/e35/s150x150/65751728_463009607828552_3468868514225191062_n.jpg?_nc_ht=scontent-iad3-1.cdninstagram.com";s:12:"config_width";i:150;s:13:"config_height";i:150;}i:1;O:8:"stdClass":3:{s:3:"src";s:201:"https://scontent-iad3-1.cdninstagram.com/vp/5f180136e67a0cf87cf6ca24da7b8f96/5DEE14AC/t51.2885-15/e35/s240x240/65751728_463009607828552_3468868514225191062_n.jpg?_nc_ht=scontent-iad3-1.cdninstagram.com";s:12:"config_width";i:240;s:13:"config_height";i:240;}i:2;O:8:"stdClass":3:{s:3:"src";s:201:"https://scontent-iad3-1.cdninstagram.com/vp/571a9845de0dd4008457469dd2314568/5DD01116/t51.2885-15/e35/s320x320/65751728_463009607828552_3468868514225191062_n.jpg?_nc_ht=scontent-iad3-1.cdninstagram.com";s:12:"config_width";i:320;s:13:"config_height";i:320;}i:3;O:8:"stdClass":3:{s:3:"src";s:201:"https://scontent-iad3-1.cdninstagram.com/vp/d352d5c9fe132163f256a76aad43826f/5DE8F64C/t51.2885-15/e35/s480x480/65751728_463009607828552_3468868514225191062_n.jpg?_nc_ht=scontent-iad3-1.cdninstagram.com";s:12:"config_width";i:480;s:13:"config_height";i:480;}i:4;O:8:"stdClass":3:{s:3:"src";s:192:"https://scontent-iad3-1.cdninstagram.com/vp/25adc82c410f0032fa15dde3a6b0fe85/5DB387A4/t51.2885-15/e35/65751728_463009607828552_3468868514225191062_n.jpg?_nc_ht=scontent-iad3-1.cdninstagram.com";s:12:"config_width";i:640;s:13:"config_height";i:640;}}s:8:"is_video";b:0;s:21:"accessibility_caption";s:31:"No photo description available.";}}i:6;O:8:"stdClass":1:{s:4:"node";O:8:"stdClass":19:{s:10:"__typename";s:10:"GraphImage";s:2:"id";s:19:"2081713962520419239";s:21:"edge_media_to_caption";O:8:"stdClass":1:{s:5:"edges";a:1:{i:0;O:8:"stdClass":1:{s:4:"node";O:8:"stdClass":1:{s:4:"text";s:231:"Creds to @artistically_franky 
Phan art Friday
Dm me art
.
#danisnotonfire #danhowell #danielhowell #amazingphil #phillester #philliplester #danandphil #danhowellandphillester #danieljameshowellandphilipmichaellester #phan #phanart";}}}}s:9:"shortcode";s:11:"Bzju9HMABun";s:21:"edge_media_to_comment";O:8:"stdClass":1:{s:5:"count";i:0;}s:17:"comments_disabled";b:0;s:18:"taken_at_timestamp";i:1562379664;s:10:"dimensions";O:8:"stdClass":2:{s:6:"height";i:636;s:5:"width";i:640;}s:11:"display_url";s:193:"https://scontent-iad3-1.cdninstagram.com/vp/cc794641e5c4303aa4b0d0a616b532b5/5DCF8E08/t51.2885-15/e35/66108565_2487690278127327_5016711818078015130_n.jpg?_nc_ht=scontent-iad3-1.cdninstagram.com";s:13:"edge_liked_by";O:8:"stdClass":1:{s:5:"count";i:102;}s:23:"edge_media_preview_like";O:8:"stdClass":1:{s:5:"count";i:102;}s:8:"location";N;s:11:"gating_info";N;s:13:"media_preview";s:544:"ACop0CtVbqf7Om/GT0A9z6+1aTJjrWbqFuZUUDoGGfoeCfwrTm0FGWtjF+3ysc7yPpwPyrWs71rglX5ZRnPqPcev86uPbRy5jeMBQPlcdfw4yCKqWtl9lySclu3oP61nF3ZrsXyxbk0ZplFa8pakTyThV3OQoHc8Vm/2nE7rEnO44yeFHp7nn6c1U1aTOxPq39B/WsYI0jBUBZj0A5NQ9NDjir+8zspIQwIbncMEEkD9O9Ys2q+VKURQ0anHcHPfB+vTimF7vZseWNe2C6bvoSMkfiayZYXhO1xtJGR7j1BHBHuKhaG7dzrbeVLhQ6n5TwfUH0NSFRVawQgb8fLJGn/fQBU8fQA5q9trRSuZt8uhm3lgbkhlbawGOeh/w/Ws6ZZLGN4VxvOC7DrsPAUd8A/ePuB0ro+4+tYmo/8AHy3/AFxb/wBBaobuxxXu/M5+taxj+0x+TJ9zeNp7g4JcL9RjI6ZwcZrJrd03rB/vS/8AoK0ilubKRGPaBwqjAHr0/l17c+tS5p0nUVHVRWhjVleVux//2Q==";s:5:"owner";O:8:"stdClass":2:{s:2:"id";s:10:"3560935628";s:8:"username";s:15:"cool_username_2";}s:13:"thumbnail_src";s:207:"https://scontent-iad3-1.cdninstagram.com/vp/5822fe646dc85e09f3ff094c9cb4339b/5DC902C8/t51.2885-15/e35/c2.0.636.636a/66108565_2487690278127327_5016711818078015130_n.jpg?_nc_ht=scontent-iad3-1.cdninstagram.com";s:19:"thumbnail_resources";a:5:{i:0;O:8:"stdClass":3:{s:3:"src";s:216:"https://scontent-iad3-1.cdninstagram.com/vp/9ac3de4d1b22062b51f70d779793d831/5DE08B8F/t51.2885-15/e35/c2.0.636.636a/s150x150/66108565_2487690278127327_5016711818078015130_n.jpg?_nc_ht=scontent-iad3-1.cdninstagram.com";s:12:"config_width";i:150;s:13:"config_height";i:150;}i:1;O:8:"stdClass":3:{s:3:"src";s:216:"https://scontent-iad3-1.cdninstagram.com/vp/c67e858390eb3047266b879fd3d71743/5DD56C89/t51.2885-15/e35/c2.0.636.636a/s240x240/66108565_2487690278127327_5016711818078015130_n.jpg?_nc_ht=scontent-iad3-1.cdninstagram.com";s:12:"config_width";i:240;s:13:"config_height";i:240;}i:2;O:8:"stdClass":3:{s:3:"src";s:216:"https://scontent-iad3-1.cdninstagram.com/vp/a89ec0d96d757b58364e5c4109b7815f/5DE306F7/t51.2885-15/e35/c2.0.636.636a/s320x320/66108565_2487690278127327_5016711818078015130_n.jpg?_nc_ht=scontent-iad3-1.cdninstagram.com";s:12:"config_width";i:320;s:13:"config_height";i:320;}i:3;O:8:"stdClass":3:{s:3:"src";s:216:"https://scontent-iad3-1.cdninstagram.com/vp/d319733f0b7e9bb5ba89d8fc6ceac7b0/5DE51EB0/t51.2885-15/e35/c2.0.636.636a/s480x480/66108565_2487690278127327_5016711818078015130_n.jpg?_nc_ht=scontent-iad3-1.cdninstagram.com";s:12:"config_width";i:480;s:13:"config_height";i:480;}i:4;O:8:"stdClass":3:{s:3:"src";s:207:"https://scontent-iad3-1.cdninstagram.com/vp/5822fe646dc85e09f3ff094c9cb4339b/5DC902C8/t51.2885-15/e35/c2.0.636.636a/66108565_2487690278127327_5016711818078015130_n.jpg?_nc_ht=scontent-iad3-1.cdninstagram.com";s:12:"config_width";i:640;s:13:"config_height";i:640;}}s:8:"is_video";b:0;s:21:"accessibility_caption";s:37:"Image may contain: one or more people";}}i:7;O:8:"stdClass":1:{s:4:"node";O:8:"stdClass":19:{s:10:"__typename";s:10:"GraphImage";s:2:"id";s:19:"2077348094030236659";s:21:"edge_media_to_caption";O:8:"stdClass":1:{s:5:"edges";a:1:{i:0;O:8:"stdClass":1:{s:4:"node";O:8:"stdClass":1:{s:4:"text";s:184:"Dm me art
.
#danisnotonfire #danhowell #danielhowell #amazingphil #phillester #philliplester #danandphil #danhowellandphillester #danieljameshowellandphilipmichaellester #phan #phanart";}}}}s:9:"shortcode";s:11:"BzUORXTgcvz";s:21:"edge_media_to_comment";O:8:"stdClass":1:{s:5:"count";i:7;}s:17:"comments_disabled";b:0;s:18:"taken_at_timestamp";i:1561859212;s:10:"dimensions";O:8:"stdClass":2:{s:6:"height";i:750;s:5:"width";i:750;}s:11:"display_url";s:192:"https://scontent-iad3-1.cdninstagram.com/vp/48aba91553fb2d9a04744a6ca81cc5b8/5DB6C797/t51.2885-15/e35/65412956_265997737606546_2240417850697149546_n.jpg?_nc_ht=scontent-iad3-1.cdninstagram.com";s:13:"edge_liked_by";O:8:"stdClass":1:{s:5:"count";i:3397;}s:23:"edge_media_preview_like";O:8:"stdClass":1:{s:5:"count";i:3397;}s:8:"location";N;s:11:"gating_info";N;s:13:"media_preview";s:416:"ACoq6Hec42n9P8aQSN/cP6f41GU77eM9d1KiL3AHvuzmgCTef7p/T/GnIxbqNv1xUZij/wAk/wCNL5cePb6n/GgCWiohHGenb3/+vU1AHEXNwVlYBjhXYAdgNxyMfWofteOnP4VaS3gmuGRyzMXc4XAGMnv1J+gqe8s4UJC8HGcE8jtkf1X8ulIDMMxeJh/tKfz3cVXMj4xk4Hanr/q2+q/+zVaW5iSHYoyx65HU+v09qYFzRxsVpW5ydoGPTBJ/UV1iHKg+oFctp4AhHbLMf5D+ldRH9wfQfypAci1jexzPJEpGWbBBXoTn1qKTT76UhnViRxnK/wCNdtRTA4xdLudrBkOSVPUe+e/vTDpVyTnyyPxX/Gu2ooA522tJo4lUocjdxkdzx3+hrfjBCgHrgfyp9FAH/9k=";s:5:"owner";O:8:"stdClass":2:{s:2:"id";s:10:"3560935628";s:8:"username";s:15:"cool_username_2";}s:13:"thumbnail_src";s:208:"https://scontent-iad3-1.cdninstagram.com/vp/1e3d7337bab82a2ce08ecfdf78752f94/5DEC3772/t51.2885-15/sh0.08/e35/s640x640/65412956_265997737606546_2240417850697149546_n.jpg?_nc_ht=scontent-iad3-1.cdninstagram.com";s:19:"thumbnail_resources";a:5:{i:0;O:8:"stdClass":3:{s:3:"src";s:201:"https://scontent-iad3-1.cdninstagram.com/vp/a09047c8a71eb20d5b4004fa269d6965/5DB33FD5/t51.2885-15/e35/s150x150/65412956_265997737606546_2240417850697149546_n.jpg?_nc_ht=scontent-iad3-1.cdninstagram.com";s:12:"config_width";i:150;s:13:"config_height";i:150;}i:1;O:8:"stdClass":3:{s:3:"src";s:201:"https://scontent-iad3-1.cdninstagram.com/vp/258d55bded644cba285d724e248ec60b/5DD3AF9F/t51.2885-15/e35/s240x240/65412956_265997737606546_2240417850697149546_n.jpg?_nc_ht=scontent-iad3-1.cdninstagram.com";s:12:"config_width";i:240;s:13:"config_height";i:240;}i:2;O:8:"stdClass":3:{s:3:"src";s:201:"https://scontent-iad3-1.cdninstagram.com/vp/3a1029931860d4dc917687e9a90590aa/5DE97825/t51.2885-15/e35/s320x320/65412956_265997737606546_2240417850697149546_n.jpg?_nc_ht=scontent-iad3-1.cdninstagram.com";s:12:"config_width";i:320;s:13:"config_height";i:320;}i:3;O:8:"stdClass":3:{s:3:"src";s:201:"https://scontent-iad3-1.cdninstagram.com/vp/901358e4019ccc78f019ddb7b5911365/5DB63A7F/t51.2885-15/e35/s480x480/65412956_265997737606546_2240417850697149546_n.jpg?_nc_ht=scontent-iad3-1.cdninstagram.com";s:12:"config_width";i:480;s:13:"config_height";i:480;}i:4;O:8:"stdClass":3:{s:3:"src";s:208:"https://scontent-iad3-1.cdninstagram.com/vp/1e3d7337bab82a2ce08ecfdf78752f94/5DEC3772/t51.2885-15/sh0.08/e35/s640x640/65412956_265997737606546_2240417850697149546_n.jpg?_nc_ht=scontent-iad3-1.cdninstagram.com";s:12:"config_width";i:640;s:13:"config_height";i:640;}}s:8:"is_video";b:0;s:21:"accessibility_caption";s:132:"Image may contain: one or more people, text that says 'crazy stalker fan runs after AmazingPhil in attempts to catch and kidnap him'";}}i:8;O:8:"stdClass":1:{s:4:"node";O:8:"stdClass":19:{s:10:"__typename";s:10:"GraphImage";s:2:"id";s:19:"2077347938589396829";s:21:"edge_media_to_caption";O:8:"stdClass":1:{s:5:"edges";a:1:{i:0;O:8:"stdClass":1:{s:4:"node";O:8:"stdClass":1:{s:4:"text";s:196:"@elixirphan
Dm me art
.
#danisnotonfire #danhowell #danielhowell #amazingphil #phillester #philliplester #danandphil #danhowellandphillester #danieljameshowellandphilipmichaellester #phan #phanart";}}}}s:9:"shortcode";s:11:"BzUOPGigs9d";s:21:"edge_media_to_comment";O:8:"stdClass":1:{s:5:"count";i:12;}s:17:"comments_disabled";b:0;s:18:"taken_at_timestamp";i:1561859193;s:10:"dimensions";O:8:"stdClass":2:{s:6:"height";i:409;s:5:"width";i:640;}s:11:"display_url";s:193:"https://scontent-iad3-1.cdninstagram.com/vp/015662e4c7f6a53aae030688a2cfaedd/5DB5241B/t51.2885-15/e35/64739984_2344799729094124_1480901480857171644_n.jpg?_nc_ht=scontent-iad3-1.cdninstagram.com";s:13:"edge_liked_by";O:8:"stdClass":1:{s:5:"count";i:1269;}s:23:"edge_media_preview_like";O:8:"stdClass":1:{s:5:"count";i:1269;}s:8:"location";N;s:11:"gating_info";N;s:13:"media_preview";s:424:"ACoa0JrpYX2uWGe/OOffdgYppvYOf3q+nVv8efrXPahO00xGdwBwo/8AretRWpVJNsq5zxg9jnj/AOv7UDOse5hjjEuWZeB8pJ59gT+lUhrNsP8Anqf8/wC9VS7RYrUqh/jDcHockceg44pumxxOTNIAccEHoD3Ppg9fY59qfmxMu/2xbH/nr/h/49U39u2/o/5D/wCKpL+2imiL4AKAkFcc+x9q5eqSTJuE2RIQOu4/zqytjPMd7dT6nn8q7H7PECWCLk9TtGfzxTxGvoPyFR5g272RyNzCYYSGOTkY7cZ9O/1ql5rGIQqeGYsQOvQAf14ruZIY3GGVWHoQD/OoPscA6Rp/3yv+FCd0P1OSN1LyRuG5VRvQgDB7d/zzmqpOOK7f7LD/AHE/75H+FL9jg/55p/3yv+FUnYD/2Q==";s:5:"owner";O:8:"stdClass":2:{s:2:"id";s:10:"3560935628";s:8:"username";s:15:"cool_username_2";}s:13:"thumbnail_src";s:209:"https://scontent-iad3-1.cdninstagram.com/vp/7a71cf0fae2aa4d7c556b1fa76300d9e/5DC7A1AE/t51.2885-15/e35/c115.0.409.409a/64739984_2344799729094124_1480901480857171644_n.jpg?_nc_ht=scontent-iad3-1.cdninstagram.com";s:19:"thumbnail_resources";a:5:{i:0;O:8:"stdClass":3:{s:3:"src";s:218:"https://scontent-iad3-1.cdninstagram.com/vp/ce46d424e8da89ac32c618b0f1962947/5DE86B55/t51.2885-15/e35/c115.0.409.409a/s150x150/64739984_2344799729094124_1480901480857171644_n.jpg?_nc_ht=scontent-iad3-1.cdninstagram.com";s:12:"config_width";i:150;s:13:"config_height";i:150;}i:1;O:8:"stdClass":3:{s:3:"src";s:218:"https://scontent-iad3-1.cdninstagram.com/vp/4644ea7164168b094cd5fdf2972e3f81/5DCD5B53/t51.2885-15/e35/c115.0.409.409a/s240x240/64739984_2344799729094124_1480901480857171644_n.jpg?_nc_ht=scontent-iad3-1.cdninstagram.com";s:12:"config_width";i:240;s:13:"config_height";i:240;}i:2;O:8:"stdClass":3:{s:3:"src";s:218:"https://scontent-iad3-1.cdninstagram.com/vp/749ae43f1c03693ee23bb48121c9bbb5/5DE5672D/t51.2885-15/e35/c115.0.409.409a/s320x320/64739984_2344799729094124_1480901480857171644_n.jpg?_nc_ht=scontent-iad3-1.cdninstagram.com";s:12:"config_width";i:320;s:13:"config_height";i:320;}i:3;O:8:"stdClass":3:{s:3:"src";s:209:"https://scontent-iad3-1.cdninstagram.com/vp/7a71cf0fae2aa4d7c556b1fa76300d9e/5DC7A1AE/t51.2885-15/e35/c115.0.409.409a/64739984_2344799729094124_1480901480857171644_n.jpg?_nc_ht=scontent-iad3-1.cdninstagram.com";s:12:"config_width";i:480;s:13:"config_height";i:480;}i:4;O:8:"stdClass":3:{s:3:"src";s:209:"https://scontent-iad3-1.cdninstagram.com/vp/7a71cf0fae2aa4d7c556b1fa76300d9e/5DC7A1AE/t51.2885-15/e35/c115.0.409.409a/64739984_2344799729094124_1480901480857171644_n.jpg?_nc_ht=scontent-iad3-1.cdninstagram.com";s:12:"config_width";i:640;s:13:"config_height";i:640;}}s:8:"is_video";b:0;s:21:"accessibility_caption";s:113:"Image may contain: text that says 'these spot the difference games are getting harder and harder @elixirphan -IG'";}}i:9;O:8:"stdClass":1:{s:4:"node";O:8:"stdClass":19:{s:10:"__typename";s:10:"GraphImage";s:2:"id";s:19:"2077347287843050252";s:21:"edge_media_to_caption";O:8:"stdClass":1:{s:5:"edges";a:1:{i:0;O:8:"stdClass":1:{s:4:"node";O:8:"stdClass":1:{s:4:"text";s:184:"Dm me art
.
#danisnotonfire #danhowell #danielhowell #amazingphil #phillester #philliplester #danandphil #danhowellandphillester #danieljameshowellandphilipmichaellester #phan #phanart";}}}}s:9:"shortcode";s:11:"BzUOFofAZMM";s:21:"edge_media_to_comment";O:8:"stdClass":1:{s:5:"count";i:46;}s:17:"comments_disabled";b:0;s:18:"taken_at_timestamp";i:1561859116;s:10:"dimensions";O:8:"stdClass":2:{s:6:"height";i:715;s:5:"width";i:640;}s:11:"display_url";s:193:"https://scontent-iad3-1.cdninstagram.com/vp/6bc38d172a2393b4fdbaf7caf06d4601/5DC7FED3/t51.2885-15/e35/64238233_2409890092578891_7804146199251676632_n.jpg?_nc_ht=scontent-iad3-1.cdninstagram.com";s:13:"edge_liked_by";O:8:"stdClass":1:{s:5:"count";i:11104;}s:23:"edge_media_preview_like";O:8:"stdClass":1:{s:5:"count";i:11104;}s:8:"location";N;s:11:"gating_info";N;s:13:"media_preview";s:500:"ACYqi05UAYuocKBjPOMn0/r2qxcFCqsQEkUnAAxkfTHQVRiUgjyy288LjI/yKkuYWR1Eh3bv4w+enUHoQO3/ANem7PQrUrlATk5JNaiWUBAUqSSBl89MjqB04qgEVeN/6imSztGPkLsqnqDhR7E4INKy7CauRGBySABwfX8jRSQkzsWDYPoR27c8UVasbJxSt+gyGQpKrAkbW56njPP5jtVjULpbh/lyVHfAHr6j3zSwyB3EZJTccbgPy6YODVrUES3YSKoJBxjJJIx1IIIrMgwuD0/lW4k0b2ix4yOhGenXk9ge4NUTff7Cj8v8KtC0NxEZiSpwSFXAHplj7nPamxIoxSICRH8hJ/iPGPT69/zoqW2BjUrKMDPGRRVEl2PSJlfcWjUqdwOc989MUs+nXMrbmdDjphsDn2x3rqMCjAqQuckNEuT3T2Of64q7Hp1ysXlMVOD1yeR1x045roKWgE7HKLo90PvbHB7Fj+fT8KK6uincR//Z";s:5:"owner";O:8:"stdClass":2:{s:2:"id";s:10:"3560935628";s:8:"username";s:15:"cool_username_2";}s:13:"thumbnail_src";s:207:"https://scontent-iad3-1.cdninstagram.com/vp/0a6012562dfb1039486aefc9cb69b644/5DB141E1/t51.2885-15/e35/c0.34.578.578/64238233_2409890092578891_7804146199251676632_n.jpg?_nc_ht=scontent-iad3-1.cdninstagram.com";s:19:"thumbnail_resources";a:5:{i:0;O:8:"stdClass":3:{s:3:"src";s:216:"https://scontent-iad3-1.cdninstagram.com/vp/5db1639f40938c4fe69bfb6621f9b23d/5DE4CFB9/t51.2885-15/e35/c0.34.578.578/s150x150/64238233_2409890092578891_7804146199251676632_n.jpg?_nc_ht=scontent-iad3-1.cdninstagram.com";s:12:"config_width";i:150;s:13:"config_height";i:150;}i:1;O:8:"stdClass":3:{s:3:"src";s:216:"https://scontent-iad3-1.cdninstagram.com/vp/868c6bb187d536f6e7beef8c333c2cd2/5DB499BF/t51.2885-15/e35/c0.34.578.578/s240x240/64238233_2409890092578891_7804146199251676632_n.jpg?_nc_ht=scontent-iad3-1.cdninstagram.com";s:12:"config_width";i:240;s:13:"config_height";i:240;}i:2;O:8:"stdClass":3:{s:3:"src";s:216:"https://scontent-iad3-1.cdninstagram.com/vp/2d30c1a60eeb37ffbb733bd9168b380a/5DE58BC1/t51.2885-15/e35/c0.34.578.578/s320x320/64238233_2409890092578891_7804146199251676632_n.jpg?_nc_ht=scontent-iad3-1.cdninstagram.com";s:12:"config_width";i:320;s:13:"config_height";i:320;}i:3;O:8:"stdClass":3:{s:3:"src";s:216:"https://scontent-iad3-1.cdninstagram.com/vp/bbf83a0be31a7a009b7590670d5afefa/5DCCE786/t51.2885-15/e35/c0.34.578.578/s480x480/64238233_2409890092578891_7804146199251676632_n.jpg?_nc_ht=scontent-iad3-1.cdninstagram.com";s:12:"config_width";i:480;s:13:"config_height";i:480;}i:4;O:8:"stdClass":3:{s:3:"src";s:207:"https://scontent-iad3-1.cdninstagram.com/vp/0a6012562dfb1039486aefc9cb69b644/5DB141E1/t51.2885-15/e35/c0.34.578.578/64238233_2409890092578891_7804146199251676632_n.jpg?_nc_ht=scontent-iad3-1.cdninstagram.com";s:12:"config_width";i:640;s:13:"config_height";i:640;}}s:8:"is_video";b:0;s:21:"accessibility_caption";s:46:"Image may contain: one or more people and text";}}i:10;O:8:"stdClass":1:{s:4:"node";O:8:"stdClass":19:{s:10:"__typename";s:10:"GraphImage";s:2:"id";s:19:"2077346626560789132";s:21:"edge_media_to_caption";O:8:"stdClass":1:{s:5:"edges";a:1:{i:0;O:8:"stdClass":1:{s:4:"node";O:8:"stdClass":1:{s:4:"text";s:184:"Dm me art
.
#danisnotonfire #danhowell #danielhowell #amazingphil #phillester #philliplester #danandphil #danhowellandphillester #danieljameshowellandphilipmichaellester #phan #phanart";}}}}s:9:"shortcode";s:11:"BzUN8AngwqM";s:21:"edge_media_to_comment";O:8:"stdClass":1:{s:5:"count";i:0;}s:17:"comments_disabled";b:0;s:18:"taken_at_timestamp";i:1561859037;s:10:"dimensions";O:8:"stdClass":2:{s:6:"height";i:640;s:5:"width";i:640;}s:11:"display_url";s:193:"https://scontent-iad3-1.cdninstagram.com/vp/aeaac56d361a67b06dbaa4c7e9e39947/5DC98978/t51.2885-15/e35/65396771_2800234580047142_3245461239281652334_n.jpg?_nc_ht=scontent-iad3-1.cdninstagram.com";s:13:"edge_liked_by";O:8:"stdClass":1:{s:5:"count";i:123;}s:23:"edge_media_preview_like";O:8:"stdClass":1:{s:5:"count";i:123;}s:8:"location";N;s:11:"gating_info";N;s:13:"media_preview";s:364:"ACoq2tmRnvUKuSSNpOPcVKrZ4quZDEsrgZK5I/AcfhVE7ljzQuNw254GSo/rSliM5HSuTW2kugZXcFj0DHr/AIe2K27MMLcK5yVbGc579M+1Tcq1lc0M5GBTcmlwOppu4+1WQ2SCPbUaLksG6EnP0xUzisycguRnI46HOD7ik9CkhkcSx5TGdudp/wAKlHyx56fMP50gYKmGxgng+57fWntnG1jnJH4c1ktzaXw2+ZcOW6Unlt7VKBinVqYWuQMec5rPawMSsbc4d+7Y6Z57cH860H60HpTAzns2mjCynJ6nA4z0z+Xt1qOSK6Dfu8MowcnGSffkHjtWoo+antU2QJtiAnHrS7zSj7pp+BVDP//Z";s:5:"owner";O:8:"stdClass":2:{s:2:"id";s:10:"3560935628";s:8:"username";s:15:"cool_username_2";}s:13:"thumbnail_src";s:193:"https://scontent-iad3-1.cdninstagram.com/vp/aeaac56d361a67b06dbaa4c7e9e39947/5DC98978/t51.2885-15/e35/65396771_2800234580047142_3245461239281652334_n.jpg?_nc_ht=scontent-iad3-1.cdninstagram.com";s:19:"thumbnail_resources";a:5:{i:0;O:8:"stdClass":3:{s:3:"src";s:202:"https://scontent-iad3-1.cdninstagram.com/vp/fa15c3a4f1503884cb139e8d04d946ae/5DDFD647/t51.2885-15/e35/s150x150/65396771_2800234580047142_3245461239281652334_n.jpg?_nc_ht=scontent-iad3-1.cdninstagram.com";s:12:"config_width";i:150;s:13:"config_height";i:150;}i:1;O:8:"stdClass":3:{s:3:"src";s:202:"https://scontent-iad3-1.cdninstagram.com/vp/1610568ce4d23bb532f25d8fd82e38db/5DD78F41/t51.2885-15/e35/s240x240/65396771_2800234580047142_3245461239281652334_n.jpg?_nc_ht=scontent-iad3-1.cdninstagram.com";s:12:"config_width";i:240;s:13:"config_height";i:240;}i:2;O:8:"stdClass":3:{s:3:"src";s:202:"https://scontent-iad3-1.cdninstagram.com/vp/641684e0d7f2a173cc466b10bfae9ed0/5DCE2E3F/t51.2885-15/e35/s320x320/65396771_2800234580047142_3245461239281652334_n.jpg?_nc_ht=scontent-iad3-1.cdninstagram.com";s:12:"config_width";i:320;s:13:"config_height";i:320;}i:3;O:8:"stdClass":3:{s:3:"src";s:202:"https://scontent-iad3-1.cdninstagram.com/vp/930f948136023198452327ca78e76ce9/5DEA4A78/t51.2885-15/e35/s480x480/65396771_2800234580047142_3245461239281652334_n.jpg?_nc_ht=scontent-iad3-1.cdninstagram.com";s:12:"config_width";i:480;s:13:"config_height";i:480;}i:4;O:8:"stdClass":3:{s:3:"src";s:193:"https://scontent-iad3-1.cdninstagram.com/vp/aeaac56d361a67b06dbaa4c7e9e39947/5DC98978/t51.2885-15/e35/65396771_2800234580047142_3245461239281652334_n.jpg?_nc_ht=scontent-iad3-1.cdninstagram.com";s:12:"config_width";i:640;s:13:"config_height";i:640;}}s:8:"is_video";b:0;s:21:"accessibility_caption";s:23:"Image may contain: text";}}i:11;O:8:"stdClass":1:{s:4:"node";O:8:"stdClass":19:{s:10:"__typename";s:10:"GraphImage";s:2:"id";s:19:"2077346510135350136";s:21:"edge_media_to_caption";O:8:"stdClass":1:{s:5:"edges";a:1:{i:0;O:8:"stdClass":1:{s:4:"node";O:8:"stdClass":1:{s:4:"text";s:184:"Dm me art
.
#danisnotonfire #danhowell #danielhowell #amazingphil #phillester #philliplester #danandphil #danhowellandphillester #danieljameshowellandphilipmichaellester #phan #phanart";}}}}s:9:"shortcode";s:11:"BzUN6UMA9N4";s:21:"edge_media_to_comment";O:8:"stdClass":1:{s:5:"count";i:0;}s:17:"comments_disabled";b:0;s:18:"taken_at_timestamp";i:1561859023;s:10:"dimensions";O:8:"stdClass":2:{s:6:"height";i:640;s:5:"width";i:640;}s:11:"display_url";s:193:"https://scontent-iad3-1.cdninstagram.com/vp/b3e7261b6e6fc84272e12396f280ff14/5DB2CD6E/t51.2885-15/e35/64590043_2546265138729409_1449090205580679646_n.jpg?_nc_ht=scontent-iad3-1.cdninstagram.com";s:13:"edge_liked_by";O:8:"stdClass":1:{s:5:"count";i:139;}s:23:"edge_media_preview_like";O:8:"stdClass":1:{s:5:"count";i:139;}s:8:"location";N;s:11:"gating_info";N;s:13:"media_preview";s:312:"ACoqaKqy3gU7U5I6ntVzYRweDWdbWjPJtYHBJz649eap6AtRFvXHcH6irkF2HB34Ujv2NXX0qHZhchv73+eKxLm2e3IDdD0qblNGt56f3l/MUvnp/eH5iufpcVVyTobuQEl/u8fyqa2nSXlTkgDPtntWBPdeZ8qgAevc/wCFWtKPL888f1qNXqyk7aI2mijDeYc5+vFYWoqiOAp5OSec9TxW0znocg+ormLh/MkZvfA+g4oRTehGTS5pue1LiqMxtSwzGFw459R6j0qGigDdOowhSy7i+OFI6H69MCsOkpaACjJpKSgD/9k=";s:5:"owner";O:8:"stdClass":2:{s:2:"id";s:10:"3560935628";s:8:"username";s:15:"cool_username_2";}s:13:"thumbnail_src";s:193:"https://scontent-iad3-1.cdninstagram.com/vp/b3e7261b6e6fc84272e12396f280ff14/5DB2CD6E/t51.2885-15/e35/64590043_2546265138729409_1449090205580679646_n.jpg?_nc_ht=scontent-iad3-1.cdninstagram.com";s:19:"thumbnail_resources";a:5:{i:0;O:8:"stdClass":3:{s:3:"src";s:202:"https://scontent-iad3-1.cdninstagram.com/vp/82aaeb0788b99a8afb8c94ba22c92c8e/5DE88651/t51.2885-15/e35/s150x150/64590043_2546265138729409_1449090205580679646_n.jpg?_nc_ht=scontent-iad3-1.cdninstagram.com";s:12:"config_width";i:150;s:13:"config_height";i:150;}i:1;O:8:"stdClass":3:{s:3:"src";s:202:"https://scontent-iad3-1.cdninstagram.com/vp/34f1bad22b23edcbd16847a40da97d83/5DE9AA57/t51.2885-15/e35/s240x240/64590043_2546265138729409_1449090205580679646_n.jpg?_nc_ht=scontent-iad3-1.cdninstagram.com";s:12:"config_width";i:240;s:13:"config_height";i:240;}i:2;O:8:"stdClass":3:{s:3:"src";s:202:"https://scontent-iad3-1.cdninstagram.com/vp/3d9330ae36d77dd1ac0fc533b43dcf26/5DC9BF29/t51.2885-15/e35/s320x320/64590043_2546265138729409_1449090205580679646_n.jpg?_nc_ht=scontent-iad3-1.cdninstagram.com";s:12:"config_width";i:320;s:13:"config_height";i:320;}i:3;O:8:"stdClass":3:{s:3:"src";s:202:"https://scontent-iad3-1.cdninstagram.com/vp/b0760f723dd5d69df8ce612985c0a3fb/5DC7546E/t51.2885-15/e35/s480x480/64590043_2546265138729409_1449090205580679646_n.jpg?_nc_ht=scontent-iad3-1.cdninstagram.com";s:12:"config_width";i:480;s:13:"config_height";i:480;}i:4;O:8:"stdClass":3:{s:3:"src";s:193:"https://scontent-iad3-1.cdninstagram.com/vp/b3e7261b6e6fc84272e12396f280ff14/5DB2CD6E/t51.2885-15/e35/64590043_2546265138729409_1449090205580679646_n.jpg?_nc_ht=scontent-iad3-1.cdninstagram.com";s:12:"config_width";i:640;s:13:"config_height";i:640;}}s:8:"is_video";b:0;s:21:"accessibility_caption";s:49:"Image may contain: one or more people and closeup";}}}}s:16:"edge_saved_media";O:8:"stdClass":3:{s:5:"count";i:0;s:9:"page_info";O:8:"stdClass":2:{s:13:"has_next_page";b:0;s:10:"end_cursor";N;}s:5:"edges";a:0:{}}s:22:"edge_media_collections";O:8:"stdClass":3:{s:5:"count";i:0;s:9:"page_info";O:8:"stdClass":2:{s:13:"has_next_page";b:0;s:10:"end_cursor";N;}s:5:"edges";a:0:{}}}