{
  "type": "service_account",
  "project_id": "studied-setting-256804",
  "private_key_id": "3e2d23dbdbd0e4f8b705f6ad6166b3e317ef9169",
  "private_key": "-----BEGIN PRIVATE KEY-----\nMIIEvQIBADANBgkqhkiG9w0BAQEFAASCBKcwggSjAgEAAoIBAQCgO8/sRSl231m9\nrwwf/RgmrfUIUztoPSYo45QzmJEd9w/jDPGE2ciyu6+GBoBuZhu98vI8wumnvCBE\n+0fjEwHD2mlgb2SViK3DkfcbfQDgNarLOjRhhuCV9NffYZs8yUMSrvFwjQek8q8S\nG9eRV8hpw7NHQ+QcSSF6mUILuE0A4QmJA+0Q7jyCapnUp8obmK6BaTQGGZWgibjg\nTvGPAle0GZf0AIiOew14bqwhxwv3NZY5ac7LkhZihZ2YsK/TsR/DluAivIuVU0w/\nJDQ/NfWi3FtJZlWcLiOks49qu1GNUx6dP3UpB79TaL3x3M4uRKoGXx8NX+EdelWj\nPnsIvRyZAgMBAAECggEAC++os38LcbF9q+WoT5G5BNickjwxBrjXaOBbH+TTmpnW\n8yD5tN3MV5QnpSJC2vZ8RpAcf249naMj/D+DwWSfEwnoI6joo0MFPrZW5BNRx2H4\nER+K22ECxejxU9Cfkc2kU3X4wlufICh75itwyYDyiv5rEnn6Oikwd0OHafwWsGP0\n4lvquX8oxDf8bdtaSNFzznaU9XJWHrjijnD1E+MhfFkxRYwxEcLrX2jWS3xupIS+\n5cJMxpAYvD9a4YQm6duOZpCgJMLmTCAdNqJlMM3eCXBaILHTgpglR60oIv7fXEk7\nF0DuyOG1rJq6ADLEsBz8PTT7NBeJn+1nSBOAVcSFIQKBgQDZ8LJjFpOZ2Hg+ynJ5\n3rCGRTfu1f3NYUD5RflJxh9HI8lH+bunXRTzqO3lna5s18wAnYiXaQ2le2i9ykpr\nPV07D29/X9nk1mNFiaXofK0l6CUlloyMBC+AgbQozWZRtvIikH8TLKdyCXfa0J5c\n/26KvcR9jsuqYOu7TlWvpGFExQKBgQC8N0Rfbe60hnWgDk9QpgFmOIBgWVyDSe3B\nNhl7e7Ag2L8vbXMzu2o8gceU5KXhqyNZR39XAwkKNknpTd+V+EGhrqWBaNkNXWHZ\nraXyqHhNTRnQpinL4QF5uGv00TE34oNqkA3HTgxEkVcA+IMWvAPvIsj2znRzl5ZM\n2zaXGQN9xQKBgQCO9Tk+kDefygQORCPVV0L5wHvRGeOTDgFdwg2k2+X2dz34DZOP\nVBqDPkNWxBj/Yop5uNw5XXrLGul43TH1qFn4fMaJielXF14k5gbDOs0lOWLshhWJ\nXtF9/RadUSaV4WhxTdFdVYQ85IMPMJtAq3jqX1J9feaQy2S2B8tjHHOFdQKBgE3q\nKxm+LoT47JSXl+nw7r9cQHiiRZPr9Mp5FM9zgpP2Zh7CFmCiAvaNWwueI7Vp3TZG\nTMa+cO2TT8GPBTHWFYVTARyzRLctoyYzpnDvoO2PL1Kals7ZlHzJBZfRSaiy0mg4\nvht1icqQyA2U0t+EcbR7F+pjyP1ZEVU7ojumlTVpAoGADz6DK5MYz8n7kD8+HyyA\n5qkytAlvv3zayfCk5jUq7bE2eG+2gFzYq+cezLqzF/lwrvDvowBl83panSMJRRnE\nx0dkqYrl4EIdBCw1cDmXxcxIKq73wKr5wl5Dbq+r8jUi2yeDdJ4mcCq41jM70lnx\nbY8780W/wKXz2mprKMn+BqU=\n-----END PRIVATE KEY-----\n",
  "client_email": "suprapharm@studied-setting-256804.iam.gserviceaccount.com",
  "client_id": "113382362438298226843",
  "auth_uri": "https://accounts.google.com/o/oauth2/auth",
  "token_uri": "https://oauth2.googleapis.com/token",
  "auth_provider_x509_cert_url": "https://www.googleapis.com/oauth2/v1/certs",
  "client_x509_cert_url": "https://www.googleapis.com/robot/v1/metadata/x509/suprapharm%40studied-setting-256804.iam.gserviceaccount.com"
}
