<svg xmlns="http://www.w3.org/2000/svg" xmlns:xlink="http://www.w3.org/1999/xlink" width="32" height="21" viewBox="0 0 32 21">
    <defs>
        <path id="a" d="M2.222.28A5.946 5.946 0 0 0 0 4.91c0 1.862.865 3.527 2.222 4.628a5.946 5.946 0 0 0 2.222-4.629A5.946 5.946 0 0 0 2.222.281z"/>
    </defs>
    <g fill="none" fill-rule="evenodd">
        <rect width="31" height="20" x=".5" y=".5" fill="#FFF" stroke="#DFDFDF" rx="4"/>
        <path fill="#D8232A" d="M12.111 16.5c3.375 0 6.111-2.686 6.111-6s-2.736-6-6.11-6C8.735 4.5 6 7.186 6 10.5s2.736 6 6.111 6z"/>
        <path fill="#ED9F2D" d="M16 15.129a6.155 6.155 0 0 0 3.889 1.371c3.375 0 6.111-2.686 6.111-6s-2.736-6-6.111-6A6.155 6.155 0 0 0 16 5.871a5.946 5.946 0 0 1 2.222 4.629A5.946 5.946 0 0 1 16 15.129z"/>
        <path fill="#D8232A" d="M16 5.872a5.946 5.946 0 0 0-2.222 4.628c0 1.863.865 3.528 2.222 4.629a5.946 5.946 0 0 0 2.222-4.629A5.946 5.946 0 0 0 16 5.872z"/>
        <g transform="translate(13.778 5.59)">
            <mask id="b" fill="#fff">
                <use xlink:href="#a"/>
            </mask>
            <g fill="#ED9F2D" mask="url(#b)">
                <path d="M-1.111 1.09h6.667v1.092h-6.667V1.09zm0 2.183h6.667v1.09h-6.667v-1.09zm6.667 2.182h-6.667v1.09h6.667v-1.09zm-6.667 2.181h6.667v1.091h-6.667v-1.09zm6.667 2.182h-6.667v1.091h6.667V9.82z"/>
            </g>
        </g>
    </g>
</svg>